<item>
<title>Show from Mon 02/01/21 </title>
<link>http://bach.bellclan.xyz/bazookajoecomics.com/1981/81-194.jpg</link>
<enclosure url="http://bach.bellclan.xyz/bazookajoecomics.com/1981/81-194.jpg" length="105077" type="image/jpg" />
<guid>Mon 02/01/21 1981/81-194.jpg</guid>
<description>A BazookaJoe comic for Mon 02/01/21</description>
</item>
