1981/81-200.jpg
1981/81-181.jpg
1981/81-182.jpg
1981/81-183.jpg
1981/81-184.jpg
1981/81-185.jpg
1981/81-186.jpg
1981/81-187.jpg
1981/81-188.jpg
1981/81-189.jpg
1981/81-190.jpg
1981/81-191.jpg
1981/81-192.jpg
1981/81-193.jpg
1981/81-194.jpg
1981/81-195.jpg
1981/81-196.jpg
1981/81-197.jpg
1981/81-198.jpg
1981/81-199.jpg
1981/81-201.jpg
1981/81-202.jpg
1981/81-203.jpg
1981/81-204.jpg
1981/81-205.jpg
1981/81-206.jpg
1981/81-207.jpg
1981/81-208.jpg
1981/81-209.jpg
1981/81-210.jpg
1981/81-211.jpg
1981/81-212.jpg
1981/81-213.jpg
1981/81-214.jpg
1981/81-215.jpg
1981/81-216.jpg
1981/81-217.jpg
1981/81-218.jpg
1981/81-219.jpg
1981/bwrapr.jpg
1954/54-17.jpg
1954/54-39.jpg
1954/ed127.jpg
1954/2-54none.jpg
1954/3-54-04.jpg
1954/3-54-22.jpg
1954/3-54-23.jpg
1954/3-54-29.jpg
1954/3-54-31.jpg
1954/3-54-32.jpg
1954/3-54-37.jpg
1954/3-54-43.jpg
1954/3-54-44.jpg
1954/54-01.jpg
1954/54-02.jpg
1954/54-03.jpg
1954/54-04.jpg
1954/54-05.jpg
1954/54-06.jpg
1954/54-07.jpg
1954/54-08.jpg
1954/54-09.jpg
1954/54-10.jpg
1954/54-11.jpg
1954/54-12.jpg
1954/54-13.jpg
1954/54-14.jpg
1954/54-15.jpg
1954/54-16.jpg
1954/54-40.jpg
1954/54-butch.jpg
1954/54-herman.jpg
1954/54-janet.jpg
1954/54-joe.jpg
1954/54-pat.jpg
1954/54-pesty.jpg
1954/54-sarge.jpg
1954/54-walkie.jpg
1954/bwrapr.jpg
1954/ed111.jpg
1954/ed112.jpg
1954/ed113.jpg
1954/ed114.jpg
1954/ed115.jpg
1954/ed116.jpg
1954/ed117.jpg
1954/ed118.jpg
1954/ed119.jpg
1954/ed120.jpg
1954/ed121.jpg
1954/ed122.jpg
1954/ed123.jpg
1954/ed124.jpg
1954/ed125.jpg
1954/ed126.jpg
1954/54-18.jpg
1954/54-19.jpg
1954/54-20.jpg
1954/54-21.jpg
1954/54-22.jpg
1954/54-23.jpg
1954/54-24.jpg
1954/54-25.jpg
1954/54-26.jpg
1954/54-27.jpg
1954/54-28.jpg
1954/54-29.jpg
1954/54-30.jpg
1954/54-31.jpg
1954/54-32.jpg
1954/54-33.jpg
1954/54-34.jpg
1954/54-35.jpg
1954/54-36.jpg
1954/54-37.jpg
1954/54-38.jpg
1954/ed128.jpg
1954/ed129.jpg
1954/ed130.jpg
1954/ed131.jpg
1954/ed132.jpg
1954/ed133.jpg
1954/ed134.jpg
1954/ed135.jpg
1954/ed136.jpg
1954/ed137.jpg
1954/ed138.jpg
1954/ed139.jpg
1954/ed140.jpg
1954/ed141.jpg
1954/ed142.jpg
1954/ed143.jpg
1954/ed144.jpg
1954/ed145.jpg
1955/1-55-02.jpg
1955/1-55-10.jpg
1955/1-55-23.jpg
1955/2-55-11.jpg
1955/2-55-18.jpg
1955/2-55-21.jpg
1955/2-55-29.jpg
1955/2-55-54.jpg
1955/55none.jpg
1955/bwrapr.jpg
1956/1-56-06.jpg
1956/1-56-15.jpg
1956/1-56-17.jpg
1956/1-56-18.jpg
1956/1-56-25.jpg
1956/1-56-33.jpg
1956/1-56-34.jpg
1956/1-56-38.jpg
1956/1-56-39.jpg
1956/2-56-01.jpg
1956/2-56-02.jpg
1956/2-56-03.jpg
1956/2-56-05.jpg
1956/2-56-09.jpg
1956/2-56-12.jpg
1956/2-56-13.jpg
1956/2-56-16.jpg
1956/2-56-20.jpg
1956/2-56-22.jpg
1956/2-56-25.jpg
1956/2-56-30.jpg
1956/2-56-37.jpg
1956/2-56-42.jpg
1956/2-56-44.jpg
1956/2-56-45.jpg
1956/2-56-46.jpg
1956/2-56-47.jpg
1956/2-56-49.jpg
1956/2-56-51.jpg
1956/2-56-52.jpg
1956/56none.jpg
1956/bwrapr.jpg
1957/1-57-01.jpg
1957/1-57-02.jpg
1957/1-57-03.jpg
1957/1-57-04.jpg
1957/1-57-05.jpg
1957/1-57-06.jpg
1957/1-57-07.jpg
1957/1-57-08.jpg
1957/1-57-09.jpg
1957/1-57-10.jpg
1957/1-57-11.jpg
1957/1-57-12.jpg
1957/1-57-13.jpg
1957/1-57-14.jpg
1957/1-57-15.jpg
1957/1-57-16.jpg
1957/1-57-17.jpg
1957/1-57-18.jpg
1957/1-57-19.jpg
1957/1-57-20.jpg
1957/1-57-21.jpg
1957/1-57-22.jpg
1957/1-57-23.jpg
1957/1-57-24.jpg
1957/1-57-25.jpg
1957/1-57-26.jpg
1957/1-57-27.jpg
1957/1-57-28.jpg
1957/1-57-29.jpg
1957/1-57-30.jpg
1957/2-57-26.jpg
1957/2-57-27.jpg
1957/2-57-28.jpg
1957/2-57-29.jpg
1957/2-57-30.jpg
1957/2-57-31.jpg
1957/2-57-32.jpg
1957/2-57-33.jpg
1957/2-57-34.jpg
1957/2-57-35.jpg
1957/2-57-36.jpg
1957/2-57-37.jpg
1957/2-57-38.jpg
1957/2-57-39.jpg
1957/2-57-40.jpg
1957/2-57-41.jpg
1957/2-57-42.jpg
1957/2-57-43.jpg
1957/2-57-44.jpg
1957/2-57-45.jpg
1957/2-57-46.jpg
1957/2-57-47.jpg
1957/2-57-48.jpg
1957/2-57-49.jpg
1957/2-57-50.jpg
1957/2-57-51.jpg
1957/2-57-52.jpg
1957/3-57-01.jpg
1957/3-57-02.jpg
1957/3-57-03.jpg
1957/3-57-04.jpg
1957/3-57-05.jpg
1957/3-57-06.jpg
1957/3-57-07.jpg
1957/3-57-08.jpg
1957/1L-57-13.jpg
1957/1L-57-14.jpg
1957/1L-57-15.jpg
1957/1L-57-16.jpg
1957/1L-57-17.jpg
1957/1L-57-18.jpg
1957/1L-57-19.jpg
1957/1L-57-20.jpg
1957/1L-57-21.jpg
1957/1L-57-22.jpg
1957/1L-57-23.jpg
1957/1L-57-24.jpg
1957/1L-57-25.jpg
1957/1L-57-26.jpg
1957/1L-57-27.jpg
1957/1L-57-28.jpg
1957/1L-57-29.jpg
1957/1L-57-30.jpg
1957/1L-57-31.jpg
1957/1L-57-32.jpg
1957/1L-57-33.jpg
1957/1L-57-34.jpg
1957/1L-57-35.jpg
1957/1L-57-36.jpg
1957/1L-57-37.jpg
1957/1L-57-38.jpg
1957/1L-57-39.jpg
1957/1L-57-40.jpg
1957/1L-57-41.jpg
1957/1L-57-42.jpg
1957/1L-57-43.jpg
1957/1L-57-44.jpg
1957/3-57-10.jpg
1957/3-57-11.jpg
1957/3-57-12.jpg
1957/3-57-13.jpg
1957/3-57-14.jpg
1957/3-57-15.jpg
1957/3-57-16.jpg
1957/3-57-17.jpg
1957/3-57-18.jpg
1957/3-57-19.jpg
1957/3-57-20.jpg
1957/3-57-21.jpg
1957/3-57-22.jpg
1957/3-57-23.jpg
1957/3-57-24.jpg
1957/3-57-25.jpg
1957/3-57-26.jpg
1957/3-57-27.jpg
1957/3-57-28.jpg
1957/3-57-29.jpg
1957/3-57-30.jpg
1957/1-57-32.jpg
1957/1-57-33.jpg
1957/1-57-34.jpg
1957/1-57-35.jpg
1957/1-57-36.jpg
1957/1-57-37.jpg
1957/1-57-38.jpg
1957/1-57-39.jpg
1957/1-57-40.jpg
1957/1-57-41.jpg
1957/1-57-42.jpg
1957/1-57-43.jpg
1957/1-57-44.jpg
1957/1-57-45.jpg
1957/1-57-46.jpg
1957/1-57-47.jpg
1957/1-57-48.jpg
1957/1-57-49.jpg
1957/1-57-50.jpg
1957/1-57-51.jpg
1957/1-57-52.jpg
1957/1L-57-01.jpg
1957/1L-57-02.jpg
1957/1L-57-03.jpg
1957/1L-57-04.jpg
1957/1L-57-05.jpg
1957/1L-57-06.jpg
1957/1L-57-07.jpg
1957/1L-57-08.jpg
1957/1L-57-09.jpg
1957/1L-57-10.jpg
1957/1L-57-11.jpg
1957/1-57-31.jpg
1957/1L-57-12.jpg
1957/1L-57-45.jpg
1957/2-57-25.jpg
1957/3-57-09.jpg
1957/3-57-31.jpg
1957/1L-57-46.jpg
1957/1L-57-47.jpg
1957/1L-57-48.jpg
1957/1L-57-49.jpg
1957/1L-57-50.jpg
1957/1L-57-51.jpg
1957/1L-57-52.jpg
1957/2-57-01.jpg
1957/2-57-02.jpg
1957/2-57-03.jpg
1957/2-57-04.jpg
1957/2-57-05.jpg
1957/2-57-06.jpg
1957/2-57-07.jpg
1957/2-57-08.jpg
1957/2-57-09.jpg
1957/2-57-10.jpg
1957/2-57-11.jpg
1957/2-57-12.jpg
1957/2-57-13.jpg
1957/2-57-14.jpg
1957/2-57-15.jpg
1957/2-57-16.jpg
1957/2-57-17.jpg
1957/2-57-18.jpg
1957/2-57-19.jpg
1957/2-57-20.jpg
1957/2-57-21.jpg
1957/2-57-22.jpg
1957/2-57-23.jpg
1957/2-57-24.jpg
1957/3-57-32.jpg
1957/3-57-33.jpg
1957/3-57-34.jpg
1957/3-57-35.jpg
1957/3-57-36.jpg
1957/3-57-37.jpg
1957/3-57-38.jpg
1957/3-57-39.jpg
1957/3-57-40.jpg
1957/3-57-41.jpg
1957/3-57-42.jpg
1957/3-57-43.jpg
1957/3-57-44.jpg
1957/3-57-45.jpg
1957/3-57-46.jpg
1957/3-57-47.jpg
1957/3-57-48.jpg
1957/3-57-49.jpg
1957/3-57-50.jpg
1957/3-57-51.jpg
1957/3-57-52.jpg
1957/bwrapr.jpg
1958/1-58-032.jpg
1958/1-58-001.jpg
1958/1-58-002.jpg
1958/1-58-003.jpg
1958/1-58-004.jpg
1958/1-58-005.jpg
1958/1-58-006.jpg
1958/1-58-007.jpg
1958/1-58-008.jpg
1958/1-58-009.jpg
1958/1-58-010.jpg
1958/1-58-011.jpg
1958/1-58-012.jpg
1958/1-58-013.jpg
1958/1-58-014.jpg
1958/1-58-015.jpg
1958/1-58-016.jpg
1958/1-58-017.jpg
1958/1-58-018.jpg
1958/1-58-019.jpg
1958/1-58-020.jpg
1958/1-58-021.jpg
1958/1-58-022.jpg
1958/1-58-023.jpg
1958/1-58-024.jpg
1958/1-58-025.jpg
1958/1-58-026.jpg
1958/1-58-027.jpg
1958/1-58-028.jpg
1958/1-58-029.jpg
1958/1-58-030.jpg
1958/1-58-031.jpg
1958/2-58-007.jpg
1958/2-58-010.jpg
1958/2-58-019.jpg
1958/2-58-026.jpg
1958/2-58-028.jpg
1958/2-58-031.jpg
1958/2-58-032.jpg
1958/2-58-039.jpg
1958/2-58-040.jpg
1958/2-58-043.jpg
1958/2-58-045.jpg
1958/2-58-046.jpg
1958/2-58-047.jpg
1958/2-58-049.jpg
1958/2-58-050.jpg
1958/2-58-053.jpg
1958/2-58-058.jpg
1958/2-58-069.jpg
1958/2-58-078.jpg
1958/2-58-082.jpg
1958/2-58-084.jpg
1958/2-58-086.jpg
1958/2-58-087.jpg
1958/2-58-088.jpg
1958/2-58-092.jpg
1958/2-58-099.jpg
1958/2-58-102.jpg
1958/2-58-103.jpg
1958/2-58-106.jpg
1958/2-58-107.jpg
1958/2-58-114.jpg
1958/bwrapr.jpg
1958/1-58-033.jpg
1958/1-58-034.jpg
1958/1-58-035.jpg
1958/1-58-036.jpg
1958/1-58-037.jpg
1958/1-58-038.jpg
1958/1-58-039.jpg
1958/1-58-040.jpg
1958/1-58-041.jpg
1958/1-58-042.jpg
1958/1-58-043.jpg
1958/1-58-044.jpg
1958/1-58-045.jpg
1958/1-58-046.jpg
1958/1-58-047.jpg
1958/1-58-048.jpg
1958/1-58-049.jpg
1958/1-58-050.jpg
1958/1-58-051.jpg
1958/1-58-052.jpg
1959/1-59-001.jpg
1959/1-59-002.jpg
1959/1-59-003.jpg
1959/1-59-004.jpg
1959/1-59-005.jpg
1959/1-59-006.jpg
1959/1-59-007.jpg
1959/1-59-008.jpg
1959/1-59-009.jpg
1959/1-59-010.jpg
1959/1-59-011.jpg
1959/1-59-012.jpg
1959/1-59-013.jpg
1959/1-59-014.jpg
1959/1-59-015.jpg
1959/1-59-016.jpg
1959/1-59-017.jpg
1959/1-59-018.jpg
1959/1-59-019.jpg
1959/1-59-020.jpg
1959/1-59-021.jpg
1959/1-59-022.jpg
1959/1-59-023.jpg
1959/1-59-024.jpg
1959/1-59-025.jpg
1959/1-59-026.jpg
1959/1-59-027.jpg
1959/1-59-062.jpg
1959/1-59-063.jpg
1959/1-59-064.jpg
1959/1-59-065.jpg
1959/1-59-066.jpg
1959/1-59-067.jpg
1959/1-59-068.jpg
1959/1-59-069.jpg
1959/1-59-070.jpg
1959/1-59-071.jpg
1959/1-59-072.jpg
1959/1-59-073.jpg
1959/1-59-074.jpg
1959/1-59-075.jpg
1959/1-59-076.jpg
1959/1-59-077.jpg
1959/1-59-078.jpg
1959/1-59-079.jpg
1959/1-59-080.jpg
1959/1-59-081.jpg
1959/1-59-082.jpg
1959/1-59-083.jpg
1959/1-59-084.jpg
1959/1-59-085.jpg
1959/1-59-086.jpg
1959/1-59-087.jpg
1959/1-59-088.jpg
1959/1-59-089.jpg
1959/1-59-090.jpg
1959/1-59-091.jpg
1959/1-59-092.jpg
1959/1-59-093.jpg
1959/1-59-094.jpg
1959/1-59-095.jpg
1959/1-59-096.jpg
1959/2-59-011.jpg
1959/2-59-012.jpg
1959/2-59-013.jpg
1959/2-59-014.jpg
1959/2-59-015.jpg
1959/2-59-016.jpg
1959/2-59-017.jpg
1959/2-59-018.jpg
1959/2-59-019.jpg
1959/2-59-020.jpg
1959/2-59-021.jpg
1959/2-59-022.jpg
1959/2-59-023.jpg
1959/2-59-024.jpg
1959/2-59-025.jpg
1959/2-59-026.jpg
1959/2-59-027.jpg
1959/2-59-028.jpg
1959/2-59-029.jpg
1959/2-59-030.jpg
1959/2-59-031.jpg
1959/2-59-032.jpg
1959/2-59-033.jpg
1959/2-59-034.jpg
1959/2-59-035.jpg
1959/2-59-036.jpg
1959/1-59-029.jpg
1959/1-59-030.jpg
1959/1-59-031.jpg
1959/1-59-032.jpg
1959/1-59-033.jpg
1959/1-59-034.jpg
1959/1-59-035.jpg
1959/1-59-036.jpg
1959/1-59-037.jpg
1959/1-59-038.jpg
1959/1-59-039.jpg
1959/1-59-040.jpg
1959/1-59-041.jpg
1959/1-59-042.jpg
1959/1-59-043.jpg
1959/1-59-044.jpg
1959/1-59-045.jpg
1959/1-59-046.jpg
1959/1-59-047.jpg
1959/1-59-048.jpg
1959/1-59-049.jpg
1959/1-59-050.jpg
1959/1-59-051.jpg
1959/1-59-052.jpg
1959/1-59-053.jpg
1959/1-59-054.jpg
1959/1-59-055.jpg
1959/1-59-056.jpg
1959/1-59-057.jpg
1959/1-59-058.jpg
1959/1-59-059.jpg
1959/1-59-060.jpg
1959/1-59-028.jpg
1959/1-59-061.jpg
1959/1-59-097.jpg
1959/2-59-010.jpg
1959/2-59-037.jpg
1959/1-59-098.jpg
1959/1-59-099.jpg
1959/1-59-100.jpg
1959/1-59-101.jpg
1959/1-59-102.jpg
1959/1-59-103.jpg
1959/1-59-104.jpg
1959/1-59-105.jpg
1959/1-59-106.jpg
1959/1-59-107.jpg
1959/1-59-108.jpg
1959/1-59-109.jpg
1959/1-59-110.jpg
1959/1-59-111.jpg
1959/1-59-112.jpg
1959/2-59-001.jpg
1959/2-59-002.jpg
1959/2-59-003.jpg
1959/2-59-004.jpg
1959/2-59-005.jpg
1959/2-59-006.jpg
1959/2-59-007.jpg
1959/2-59-008.jpg
1959/2-59-009.jpg
1959/2-59-038.jpg
1959/2-59-039.jpg
1959/2-59-040.jpg
1959/2-59-041.jpg
1959/2-59-042.jpg
1959/2-59-043.jpg
1959/2-59-044.jpg
1959/2-59-045.jpg
1959/2-59-046.jpg
1959/2-59-047.jpg
1959/2-59-048.jpg
1959/2-59-049.jpg
1959/2-59-050.jpg
1959/2-59-051.jpg
1959/2-59-053.jpg
1959/2-59-053v.jpg
1959/2-59-054.jpg
1959/2-59-055.jpg
1959/2-59-056.jpg
1959/bwrapr.jpg
1960/1-60-35.jpg
1960/2-60-08.jpg
1960/2-60-33.jpg
1960/1-60-01.jpg
1960/1-60-02.jpg
1960/1-60-03.jpg
1960/1-60-04.jpg
1960/1-60-05.jpg
1960/1-60-06.jpg
1960/1-60-07.jpg
1960/1-60-08.jpg
1960/1-60-09.jpg
1960/1-60-10.jpg
1960/1-60-11.jpg
1960/1-60-12.jpg
1960/1-60-13.jpg
1960/1-60-14.jpg
1960/1-60-15.jpg
1960/1-60-16.jpg
1960/1-60-17.jpg
1960/1-60-18.jpg
1960/1-60-19.jpg
1960/1-60-20.jpg
1960/1-60-21.jpg
1960/1-60-22.jpg
1960/1-60-23.jpg
1960/1-60-24.jpg
1960/1-60-25.jpg
1960/1-60-26.jpg
1960/1-60-27.jpg
1960/1-60-28.jpg
1960/1-60-29.jpg
1960/1-60-30.jpg
1960/1-60-31.jpg
1960/1-60-32.jpg
1960/1-60-33.jpg
1960/1-60-34.jpg
1960/2-60-09.jpg
1960/2-60-10.jpg
1960/2-60-11.jpg
1960/2-60-12.jpg
1960/2-60-13.jpg
1960/2-60-14.jpg
1960/2-60-15.jpg
1960/2-60-16.jpg
1960/2-60-17.jpg
1960/2-60-18.jpg
1960/2-60-19.jpg
1960/2-60-20.jpg
1960/2-60-21.jpg
1960/2-60-22.jpg
1960/2-60-23.jpg
1960/2-60-24.jpg
1960/2-60-25.jpg
1960/2-60-26.jpg
1960/2-60-27.jpg
1960/2-60-28.jpg
1960/2-60-29.jpg
1960/2-60-30.jpg
1960/2-60-31.jpg
1960/2-60-32.jpg
1960/1-60-36.jpg
1960/1-60-37.jpg
1960/1-60-38.jpg
1960/1-60-39.jpg
1960/1-60-40.jpg
1960/1-60-41.jpg
1960/1-60-42.jpg
1960/1-60-43.jpg
1960/1-60-44.jpg
1960/1-60-45.jpg
1960/1-60-46.jpg
1960/1-60-47.jpg
1960/1-60-48.jpg
1960/1-60-49.jpg
1960/1-60-50.jpg
1960/1-60-51.jpg
1960/1-60-52.jpg
1960/1-60-53.jpg
1960/1-60-54.jpg
1960/1-60-55.jpg
1960/1-60-56.jpg
1960/2-60-01.jpg
1960/2-60-02.jpg
1960/2-60-03.jpg
1960/2-60-04.jpg
1960/2-60-05.jpg
1960/2-60-06.jpg
1960/2-60-07.jpg
1960/2-60-34.jpg
1960/2-60-35.jpg
1960/2-60-36.jpg
1960/2-60-37.jpg
1960/2-60-38.jpg
1960/2-60-39.jpg
1960/2-60-40.jpg
1960/2-60-41.jpg
1960/2-60-42.jpg
1960/2-60-43.jpg
1960/2-60-44.jpg
1960/2-60-45.jpg
1960/2-60-46.jpg
1960/2-60-47.jpg
1960/2-60-48.jpg
1960/2-60-49.jpg
1960/2-60-50.jpg
1960/2-60-51.jpg
1960/2-60-52.jpg
1960/2-60-53.jpg
1960/2-60-54.jpg
1960/2-60-55.jpg
1960/2-60-56.jpg
1960/bwrapr.jpg
1961/1-61-23.jpg
1961/1-61-50.jpg
1961/2-61-24.jpg
1961/1-61-01.jpg
1961/1-61-02.jpg
1961/1-61-03.jpg
1961/1-61-04.jpg
1961/1-61-05.jpg
1961/1-61-06.jpg
1961/1-61-07.jpg
1961/1-61-08.jpg
1961/1-61-09.jpg
1961/1-61-10.jpg
1961/1-61-11.jpg
1961/1-61-12.jpg
1961/1-61-13.jpg
1961/1-61-14.jpg
1961/1-61-15.jpg
1961/1-61-16.jpg
1961/1-61-17.jpg
1961/1-61-18.jpg
1961/1-61-19.jpg
1961/1-61-20.jpg
1961/1-61-21.jpg
1961/1-61-22.jpg
1961/1-61-51.jpg
1961/1-61-52.jpg
1961/1-61-53.jpg
1961/1-61-54.jpg
1961/1-61-55.jpg
1961/1-61-56.jpg
1961/2-61-01.jpg
1961/2-61-02.jpg
1961/2-61-03.jpg
1961/2-61-04.jpg
1961/2-61-05.jpg
1961/2-61-06.jpg
1961/2-61-07.jpg
1961/2-61-08.jpg
1961/2-61-09.jpg
1961/2-61-10.jpg
1961/2-61-11.jpg
1961/2-61-12.jpg
1961/2-61-13.jpg
1961/2-61-14.jpg
1961/2-61-15.jpg
1961/2-61-16.jpg
1961/2-61-17.jpg
1961/2-61-18.jpg
1961/2-61-19.jpg
1961/2-61-20.jpg
1961/2-61-21.jpg
1961/2-61-22.jpg
1961/2-61-23.jpg
1961/2-61-25.jpg
1961/2-61-26.jpg
1961/2-61-27.jpg
1961/2-61-28.jpg
1961/2-61-29.jpg
1961/2-61-30.jpg
1961/2-61-31.jpg
1961/2-61-32.jpg
1961/2-61-33.jpg
1961/2-61-34.jpg
1961/2-61-35.jpg
1961/2-61-36.jpg
1961/2-61-37.jpg
1961/2-61-38.jpg
1961/2-61-39.jpg
1961/2-61-40.jpg
1961/2-61-41.jpg
1961/2-61-42.jpg
1961/2-61-43.jpg
1961/2-61-44.jpg
1961/2-61-45.jpg
1961/2-61-46.jpg
1961/2-61-47.jpg
1961/2-61-48.jpg
1961/2-61-49.jpg
1961/2-61-50.jpg
1961/2-61-51.jpg
1961/2-61-52.jpg
1961/2-61-53.jpg
1961/2-61-54.jpg
1961/2-61-55.jpg
1961/2-61-56.jpg
1961/bwrapr.jpg
1961/1-61-24.jpg
1961/1-61-25.jpg
1961/1-61-26.jpg
1961/1-61-27.jpg
1961/1-61-28.jpg
1961/1-61-29.jpg
1961/1-61-30.jpg
1961/1-61-31.jpg
1961/1-61-32.jpg
1961/1-61-33.jpg
1961/1-61-34.jpg
1961/1-61-35.jpg
1961/1-61-36.jpg
1961/1-61-37.jpg
1961/1-61-38.jpg
1961/1-61-39.jpg
1961/1-61-40.jpg
1961/1-61-41.jpg
1961/1-61-42.jpg
1961/1-61-43.jpg
1961/1-61-44.jpg
1961/1-61-45.jpg
1961/1-61-46.jpg
1961/1-61-47.jpg
1961/1-61-48.jpg
1961/1-61-49.jpg
1962/D1-62-23.jpg
1962/D2-09.jpg
1962/D2-62-17.jpg
1962/bwrapr.jpg
1962/D1-62-01.jpg
1962/D1-62-02.jpg
1962/D1-62-03.jpg
1962/D1-62-04.jpg
1962/D1-62-05.jpg
1962/D1-62-06.jpg
1962/D1-62-07.jpg
1962/D1-62-08.jpg
1962/D1-62-09.jpg
1962/D1-62-10.jpg
1962/D1-62-11.jpg
1962/D1-62-12.jpg
1962/D1-62-13.jpg
1962/D1-62-14.jpg
1962/D1-62-15.jpg
1962/D1-62-16.jpg
1962/D1-62-17.jpg
1962/D1-62-18.jpg
1962/D1-62-19.jpg
1962/D1-62-20.jpg
1962/D1-62-21.jpg
1962/D1-62-22.jpg
1962/D2-21.jpg
1962/D2-24.jpg
1962/D2-28.jpg
1962/D2-31.jpg
1962/D2-32.jpg
1962/D2-36.jpg
1962/D2-62-01.jpg
1962/D2-62-02.jpg
1962/D2-62-03.jpg
1962/D2-62-04.jpg
1962/D2-62-05.jpg
1962/D2-62-06.jpg
1962/D2-62-07.jpg
1962/D2-62-08.jpg
1962/D2-62-09.jpg
1962/D2-62-10.jpg
1962/D2-62-11.jpg
1962/D2-62-12.jpg
1962/D2-62-13.jpg
1962/D2-62-14.jpg
1962/D2-62-15.jpg
1962/D2-62-16.jpg
1962/D1-62-24.jpg
1962/D1-62-25.jpg
1962/D1-62-26.jpg
1962/D1-62-27.jpg
1962/D1-62-28.jpg
1962/D1-62-29.jpg
1962/D1-62-30.jpg
1962/D1-62-31.jpg
1962/D1-62-32.jpg
1962/D1-62-33.jpg
1962/D1-62-34.jpg
1962/D1-62-35.jpg
1962/D1-62-36.jpg
1962/D1-62-37.jpg
1962/D1-62-38.jpg
1962/D1-62-39.jpg
1962/D1-62-40.jpg
1962/D1-62-41.jpg
1962/D1-62-42.jpg
1962/D2-03.jpg
1962/D2-06.jpg
1962/D2-07.jpg
1962/D2-08.jpg
1962/D2-62-18.jpg
1962/D2-62-19.jpg
1962/D2-62-20.jpg
1962/D2-62-21.jpg
1962/D2-62-22.jpg
1962/D2-62-23.jpg
1962/D2-62-24.jpg
1962/D2-62-25.jpg
1962/D2-62-26.jpg
1962/D2-62-27.jpg
1962/D2-62-28.jpg
1962/D2-62-29.jpg
1962/D2-62-30.jpg
1962/D2-62-31.jpg
1962/D2-62-32.jpg
1962/D2-62-33.jpg
1962/D2-62-34.jpg
1962/D2-62-35.jpg
1962/D2-62-36.jpg
1962/D2-62-37.jpg
1962/D2-62-38.jpg
1962/D2-62-39.jpg
1962/D2-62-40.jpg
1962/D2-62-41.jpg
1962/D2-62-42.jpg
1963/D3-26.jpg
1963/bwrapr.jpg
1963/D1-63-04.jpg
1963/D1-63-07.jpg
1963/D1-63-18.jpg
1963/D1-63-25.jpg
1963/D1-63-26.jpg
1963/D1-63-32.jpg
1963/D1-63-33.jpg
1963/D1-63-34.jpg
1963/D1-63-36.jpg
1963/D3-01.jpg
1963/D3-02.jpg
1963/D3-03.jpg
1963/D3-04.jpg
1963/D3-05.jpg
1963/D3-06.jpg
1963/D3-07.jpg
1963/D3-08.jpg
1963/D3-09.jpg
1963/D3-10.jpg
1963/D3-11.jpg
1963/D3-12.jpg
1963/D3-13.jpg
1963/D3-14.jpg
1963/D3-15.jpg
1963/D3-16.jpg
1963/D3-17.jpg
1963/D3-18.jpg
1963/D3-19.jpg
1963/D3-20.jpg
1963/D3-21.jpg
1963/D3-22.jpg
1963/D3-23.jpg
1963/D3-24.jpg
1963/D3-25.jpg
1963/D3-27.jpg
1963/D3-28.jpg
1963/D3-29.jpg
1963/D3-30.jpg
1963/D3-31.jpg
1963/D3-32.jpg
1963/D3-33.jpg
1963/D3-34.jpg
1963/D3-35.jpg
1963/D3-36.jpg
1963/D3-37.jpg
1963/D3-38.jpg
1963/D3-39.jpg
1963/D3-40.jpg
1963/D3-41.jpg
1963/D3-42.jpg
1963/D3BW-36.jpg
1963/D3P-15.jpg
1963/D3P-18.jpg
1963/D3P-23.jpg
1963/D3P-25.jpg
1963/D3P-35.jpg
1963/D3P-37.jpg
1963/D3P-39.jpg
1964/D4-22.jpg
1964/bwrapr.jpg
1964/D4-01.jpg
1964/D4-02.jpg
1964/D4-03.jpg
1964/D4-04.jpg
1964/D4-05.jpg
1964/D4-06.jpg
1964/D4-07.jpg
1964/D4-08.jpg
1964/D4-09.jpg
1964/D4-10.jpg
1964/D4-11.jpg
1964/D4-12.jpg
1964/D4-13.jpg
1964/D4-14.jpg
1964/D4-15.jpg
1964/D4-16.jpg
1964/D4-17.jpg
1964/D4-18.jpg
1964/D4-19.jpg
1964/D4-20.jpg
1964/D4-21.jpg
1964/D4-23.jpg
1964/D4-24.jpg
1964/D4-25.jpg
1964/D4-26.jpg
1964/D4-27.jpg
1964/D4-28.jpg
1964/D4-29.jpg
1964/D4-30.jpg
1964/D4-31.jpg
1964/D4-32.jpg
1964/D4-33.jpg
1964/D4P-04.jpg
1964/D4P-07.jpg
1964/D4P-09.jpg
1964/D4P-19.jpg
1964/D4P-26.jpg
1964/D4P-30.jpg
1964/D4P-32.jpg
1964/D4PW-16.jpg
1964/D4PW-29.jpg
1965/D5-26.jpg
1965/D5PP-06.jpg
1965/D5PP-41.jpg
1965/65none.jpg
1965/bwrapr.jpg
1965/D5-01.jpg
1965/D5-02.jpg
1965/D5-03.jpg
1965/D5-04.jpg
1965/D5-05.jpg
1965/D5-06.jpg
1965/D5-07.jpg
1965/D5-08.jpg
1965/D5-09.jpg
1965/D5-10.jpg
1965/D5-11.jpg
1965/D5-12.jpg
1965/D5-13.jpg
1965/D5-14.jpg
1965/D5-15.jpg
1965/D5-16.jpg
1965/D5-17.jpg
1965/D5-18.jpg
1965/D5-19.jpg
1965/D5-20.jpg
1965/D5-21.jpg
1965/D5-22.jpg
1965/D5-23.jpg
1965/D5-24.jpg
1965/D5-25.jpg
1965/D5PP-07.jpg
1965/D5PP-08.jpg
1965/D5PP-09.jpg
1965/D5PP-10.jpg
1965/D5PP-11.jpg
1965/D5PP-12.jpg
1965/D5PP-13.jpg
1965/D5PP-14.jpg
1965/D5PP-15.jpg
1965/D5PP-16.jpg
1965/D5PP-17.jpg
1965/D5PP-18.jpg
1965/D5PP-19.jpg
1965/D5PP-20.jpg
1965/D5PP-21.jpg
1965/D5PP-22.jpg
1965/D5PP-23.jpg
1965/D5PP-24.jpg
1965/D5PP-25.jpg
1965/D5PP-26.jpg
1965/D5PP-27.jpg
1965/D5PP-28.jpg
1965/D5PP-29.jpg
1965/D5PP-30.jpg
1965/D5PP-31.jpg
1965/D5PP-32.jpg
1965/D5PP-33.jpg
1965/D5PP-34.jpg
1965/D5PP-35.jpg
1965/D5PP-36.jpg
1965/D5PP-37.jpg
1965/D5PP-38.jpg
1965/D5PP-39.jpg
1965/D5PP-40.jpg
1965/D5-27.jpg
1965/D5-28.jpg
1965/D5-29.jpg
1965/D5-30.jpg
1965/D5-31.jpg
1965/D5-32.jpg
1965/D5-33.jpg
1965/D5-34.jpg
1965/D5-35.jpg
1965/D5-36.jpg
1965/D5-37.jpg
1965/D5-38.jpg
1965/D5-39.jpg
1965/D5-40.jpg
1965/D5-41.jpg
1965/D5-42.jpg
1965/D5PBP-07.jpg
1965/D5PBP-12.jpg
1965/D5PBP-13.jpg
1965/D5PBP-15.jpg
1965/D5PBP-16.jpg
1965/D5PBP-21.jpg
1965/D5PBP-22.jpg
1965/D5PBP-25.jpg
1965/D5PBP-28.jpg
1965/D5PBP-29.jpg
1965/D5PP-01.jpg
1965/D5PP-02.jpg
1965/D5PP-03.jpg
1965/D5PP-04.jpg
1965/D5PP-05.jpg
1965/D5PP-42.jpg
1965/D5PPP-01.jpg
1965/D5PPP-05.jpg
1965/D5PPP-08.jpg
1965/D5PPP-10.jpg
1965/D5PPP-12.jpg
1965/D5PPP-13.jpg
1965/D5PPP-15.jpg
1965/D5PPP-16.jpg
1965/D5PPP-18.jpg
1965/D5PPP-19.jpg
1965/D5PPP-21.jpg
1965/D5PPP-25.jpg
1965/D5PPP-27.jpg
1965/D5PPP-30.jpg
1965/D5PPP-32.jpg
1965/D5PPP-33.jpg
1965/D5PPP-36.jpg
1965/D5PPP-37.jpg
1965/D5PPP-40.jpg
1965/D5PPP-41.jpg
1966/D6-30.jpg
1966/bwrapr.jpg
1966/D6-01.jpg
1966/D6-02.jpg
1966/D6-03.jpg
1966/D6-04.jpg
1966/D6-05.jpg
1966/D6-06.jpg
1966/D6-07.jpg
1966/D6-08.jpg
1966/D6-09.jpg
1966/D6-10.jpg
1966/D6-11.jpg
1966/D6-12.jpg
1966/D6-13.jpg
1966/D6-14.jpg
1966/D6-15.jpg
1966/D6-16.jpg
1966/D6-17.jpg
1966/D6-18.jpg
1966/D6-19.jpg
1966/D6-20.jpg
1966/D6-21.jpg
1966/D6-22.jpg
1966/D6-23.jpg
1966/D6-24.jpg
1966/D6-25.jpg
1966/D6-26.jpg
1966/D6-27.jpg
1966/D6-28.jpg
1966/D6-29.jpg
1966/D6-31.jpg
1966/D6-32.jpg
1966/D6-33.jpg
1966/D6-34.jpg
1966/D6-35.jpg
1966/D6-36.jpg
1966/D6-37.jpg
1966/D6-38.jpg
1966/D6-39.jpg
1966/D6-40.jpg
1966/D6-41.jpg
1966/D6-42.jpg
1966/ve2-02.jpg
1966/ve2-29.jpg
1966/ve2-30.jpg
1966/ve2-31.jpg
1966/ve2-32.jpg
1966/ve2-33.jpg
1966/ve2-34.jpg
1966/ve2-35.jpg
1966/ve2-36.jpg
1966/ve2-37.jpg
1966/ve2-38.jpg
1966/ve2-40.jpg
1966/ve2-41.jpg
1967/D7-28.jpg
1967/VE3-18.jpg
1967/bwrapr.jpg
1967/D7-01.jpg
1967/D7-02.jpg
1967/D7-03.jpg
1967/D7-04.jpg
1967/D7-05.jpg
1967/D7-06.jpg
1967/D7-07.jpg
1967/D7-08.jpg
1967/D7-09.jpg
1967/D7-10.jpg
1967/D7-10v.jpg
1967/D7-11.jpg
1967/D7-12.jpg
1967/D7-13.jpg
1967/D7-13v.jpg
1967/D7-14.jpg
1967/D7-15.jpg
1967/D7-16.jpg
1967/D7-17.jpg
1967/D7-18.jpg
1967/D7-19.jpg
1967/D7-20.jpg
1967/D7-21.jpg
1967/D7-22.jpg
1967/D7-23.jpg
1967/D7-24.jpg
1967/D7-24v.jpg
1967/D7-25.jpg
1967/D7-26.jpg
1967/D7-27.jpg
1967/D7-29.jpg
1967/D7-30.jpg
1967/D7-31.jpg
1967/D7-32.jpg
1967/D7-33.jpg
1967/D7-34.jpg
1967/D7-34v.jpg
1967/D7-35.jpg
1967/D7-36.jpg
1967/D7-36v.jpg
1967/D7-37.jpg
1967/D7-38.jpg
1967/D7-38v.jpg
1967/D7-39.jpg
1967/D7-40.jpg
1967/D7-40v.jpg
1967/D7-41.jpg
1967/D7-42.jpg
1967/VE3-17.jpg
1967/VE3-19.jpg
1967/VE3-21.jpg
1967/VE3-23.jpg
1967/VE3-24.jpg
1967/VE3-25.jpg
1967/VE3-27.jpg
1967/VE3-28.jpg
1967/VE3-29.jpg
1967/VE3-31.jpg
1967/VE3-32.jpg
1967/VE3-33.jpg
1967/VE3-34.jpg
1967/VE3-35.jpg
1967/VE3-36.jpg
1967/VE3-37.jpg
1967/VE3-38.jpg
1967/VE3-39.jpg
1967/VE3-40.jpg
1967/VE3-41.jpg
1967/VE3-42.jpg
1968/D8-19.jpg
1968/bwrapr.jpg
1968/D8-01.jpg
1968/D8-02.jpg
1968/D8-03.jpg
1968/D8-04.jpg
1968/D8-05.jpg
1968/D8-06.jpg
1968/D8-07.jpg
1968/D8-08.jpg
1968/D8-09.jpg
1968/D8-10.jpg
1968/D8-11.jpg
1968/D8-12.jpg
1968/D8-13.jpg
1968/D8-14.jpg
1968/D8-15.jpg
1968/D8-16.jpg
1968/D8-17.jpg
1968/D8-18.jpg
1968/D8-20.jpg
1968/D8-21.jpg
1968/D8-22.jpg
1968/D8-23.jpg
1968/D8-24.jpg
1968/D8-25.jpg
1968/D8-26.jpg
1968/D8-27.jpg
1968/D8-28.jpg
1968/D8-29.jpg
1968/D8-30.jpg
1968/D8-31.jpg
1968/D8-32.jpg
1968/D8-33.jpg
1968/D8-34.jpg
1968/D8-35.jpg
1968/D8-36.jpg
1968/D8-37.jpg
1968/D8-38.jpg
1968/D8-39.jpg
1968/D8-40.jpg
1968/D8-41.jpg
1968/D8-42.jpg
1969/D9-20.jpg
1969/bwrapr.jpg
1969/D9-01.jpg
1969/D9-02.jpg
1969/D9-03.jpg
1969/D9-04.jpg
1969/D9-05.jpg
1969/D9-06.jpg
1969/D9-07.jpg
1969/D9-08.jpg
1969/D9-09.jpg
1969/D9-10.jpg
1969/D9-11.jpg
1969/D9-12.jpg
1969/D9-13.jpg
1969/D9-14.jpg
1969/D9-15.jpg
1969/D9-16.jpg
1969/D9-17.jpg
1969/D9-18.jpg
1969/D9-19.jpg
1969/D9-21.jpg
1969/D9-22.jpg
1969/D9-23.jpg
1969/D9-24.jpg
1969/D9-25.jpg
1969/D9-26.jpg
1969/D9-27.jpg
1969/D9-28.jpg
1969/D9-29.jpg
1969/D9-30.jpg
1969/D9-31.jpg
1969/D9-32.jpg
1969/D9-33.jpg
1969/D9-34.jpg
1969/D9-35.jpg
1969/D9-36.jpg
1969/D9-37.jpg
1969/D9-38.jpg
1969/D9-39.jpg
1969/D9-40.jpg
1969/D9-41.jpg
1969/D9-42.jpg
1970/D10-18.jpg
1970/70-a-11.jpg
1970/70opc-01f.jpg
1970/bwrapr.jpg
1970/D10-01.jpg
1970/D10-02.jpg
1970/D10-03.jpg
1970/D10-04.jpg
1970/D10-05.jpg
1970/D10-06.jpg
1970/D10-07.jpg
1970/D10-08.jpg
1970/D10-09.jpg
1970/D10-10.jpg
1970/D10-11.jpg
1970/D10-12.jpg
1970/D10-13.jpg
1970/D10-14.jpg
1970/D10-15.jpg
1970/D10-16.jpg
1970/D10-17.jpg
1970/D10-19.jpg
1970/D10-20.jpg
1970/D10-21.jpg
1970/D10-22.jpg
1970/D10-23.jpg
1970/D10-24.jpg
1970/D10-25.jpg
1970/D10-26.jpg
1970/D10-27.jpg
1970/D10-28.jpg
1970/D10-29.jpg
1970/D10-30.jpg
1970/D10-31.jpg
1970/D10-32.jpg
1970/D10-33.jpg
1970/D10-34.jpg
1970/D10-35.jpg
1970/D10-36.jpg
1970/D10-37.jpg
1970/D10-38.jpg
1970/D10-39.jpg
1970/D10-40.jpg
1970/D10-41.jpg
1970/D10-42.jpg
1970/puzz70-a-11.jpg
1971/71-23.jpg
1971/71-01.jpg
1971/71-02.jpg
1971/71-03.jpg
1971/71-04.jpg
1971/71-05.jpg
1971/71-06.jpg
1971/71-07.jpg
1971/71-08.jpg
1971/71-09.jpg
1971/71-10.jpg
1971/71-11.jpg
1971/71-12.jpg
1971/71-13.jpg
1971/71-14.jpg
1971/71-15.jpg
1971/71-16.jpg
1971/71-17.jpg
1971/71-18.jpg
1971/71-19.jpg
1971/71-20.jpg
1971/71-21.jpg
1971/71-22.jpg
1971/71-24.jpg
1971/71-25.jpg
1971/71-26.jpg
1971/71-27.jpg
1971/71-28.jpg
1971/71-29.jpg
1971/71-30.jpg
1971/71-31.jpg
1971/71-32.jpg
1971/71-33.jpg
1971/71-34.jpg
1971/71-35.jpg
1971/71-36.jpg
1971/71-37.jpg
1971/71-38.jpg
1971/71-39.jpg
1971/71-40.jpg
1971/71-41.jpg
1971/71-42.jpg
1971/71-43.jpg
1971/71-44.jpg
1971/71-45.jpg
1971/bwrapr.jpg
1972/72-454-70.jpg
1972/72-52.jpg
1972/72-75.jpg
1972/72-454-46.jpg
1972/72-454-47.jpg
1972/72-454-48.jpg
1972/72-454-49.jpg
1972/72-454-50.jpg
1972/72-454-51.jpg
1972/72-454-52.jpg
1972/72-454-53.jpg
1972/72-454-54.jpg
1972/72-454-55.jpg
1972/72-454-56.jpg
1972/72-454-57.jpg
1972/72-454-58.jpg
1972/72-454-59.jpg
1972/72-454-60.jpg
1972/72-454-61.jpg
1972/72-454-62.jpg
1972/72-454-63.jpg
1972/72-454-64.jpg
1972/72-454-65.jpg
1972/72-454-66.jpg
1972/72-454-67.jpg
1972/72-454-68.jpg
1972/72-454-69.jpg
1972/72-53.jpg
1972/72-54.jpg
1972/72-55.jpg
1972/72-56.jpg
1972/72-57.jpg
1972/72-58.jpg
1972/72-59.jpg
1972/72-60.jpg
1972/72-61.jpg
1972/72-62.jpg
1972/72-63.jpg
1972/72-64.jpg
1972/72-65.jpg
1972/72-66.jpg
1972/72-67.jpg
1972/72-68.jpg
1972/72-69.jpg
1972/72-70.jpg
1972/72-71.jpg
1972/72-72.jpg
1972/72-73.jpg
1972/72-74.jpg
1972/72-454-71.jpg
1972/72-454-72.jpg
1972/72-454-73.jpg
1972/72-454-74.jpg
1972/72-454-75.jpg
1972/72-454-76.jpg
1972/72-454-77.jpg
1972/72-454-78.jpg
1972/72-454-79.jpg
1972/72-454-80.jpg
1972/72-454-81.jpg
1972/72-454-82.jpg
1972/72-454-83.jpg
1972/72-454-84.jpg
1972/72-454-85.jpg
1972/72-454-86.jpg
1972/72-454-87.jpg
1972/72-454-88.jpg
1972/72-454-89.jpg
1972/72-454-90.jpg
1972/72-46.jpg
1972/72-47.jpg
1972/72-48.jpg
1972/72-49.jpg
1972/72-50.jpg
1972/72-51.jpg
1972/72-76.jpg
1972/72-77.jpg
1972/72-78.jpg
1972/72-79.jpg
1972/72-80.jpg
1972/72-81.jpg
1972/72-82.jpg
1972/72-83.jpg
1972/72-84.jpg
1972/72-85.jpg
1972/72-86.jpg
1972/72-87.jpg
1972/72-88.jpg
1972/72-89.jpg
1972/72-90.jpg
1972/bwrapr.jpg
1972/puzz72-1-01f.jpg
1972/puzz72-1-05.jpg
1972/puzzle72-1sht.jpg
1973/73-110-1.jpg
1973/73-121.jpg
1973/73-131-1.jpg
1973/73-100-1.jpg
1973/73-100-2.jpg
1973/73-100.jpg
1973/73-101-1.jpg
1973/73-101.jpg
1973/73-102-1.jpg
1973/73-102.jpg
1973/73-103-1.jpg
1973/73-103-2.jpg
1973/73-103.jpg
1973/73-104-1.jpg
1973/73-104-2.jpg
1973/73-104.jpg
1973/73-105-1.jpg
1973/73-105-2.jpg
1973/73-105.jpg
1973/73-106-1.jpg
1973/73-106.jpg
1973/73-107-1.jpg
1973/73-107-2.jpg
1973/73-107.jpg
1973/73-108-1.jpg
1973/73-108.jpg
1973/73-109-1.jpg
1973/73-109.jpg
1973/73-122-1.jpg
1973/73-122-2.jpg
1973/73-122.jpg
1973/73-123-1.jpg
1973/73-123.jpg
1973/73-124-1.jpg
1973/73-124.jpg
1973/73-125-1.jpg
1973/73-125-2.jpg
1973/73-125.jpg
1973/73-126-1.jpg
1973/73-126.jpg
1973/73-127-1.jpg
1973/73-127-2.jpg
1973/73-127.jpg
1973/73-128-1.jpg
1973/73-128-2.jpg
1973/73-128.jpg
1973/73-129-1.jpg
1973/73-129-2.jpg
1973/73-129.jpg
1973/73-130-1.jpg
1973/73-130-2.jpg
1973/73-130.jpg
1973/73-131.jpg
1973/73-132-1.jpg
1973/73-132-2.jpg
1973/73-132.jpg
1973/73-133-1.jpg
1973/73-133.jpg
1973/73-134-1.jpg
1973/73-134.jpg
1973/73-135-1.jpg
1973/73-135-2.jpg
1973/73-135.jpg
1973/73-91-1.jpg
1973/73-91.jpg
1973/73-92-1.jpg
1973/73-92-2.jpg
1973/73-92.jpg
1973/73-93-1.jpg
1973/73-93.jpg
1973/73-94-1.jpg
1973/73-94-2.jpg
1973/73-94.jpg
1973/73-95-1.jpg
1973/73-95-2.jpg
1973/73-95.jpg
1973/73-96-1.jpg
1973/73-96.jpg
1973/73-97-1.jpg
1973/73-97-2.jpg
1973/73-97.jpg
1973/73-98-1.jpg
1973/73-98.jpg
1973/73-99-1.jpg
1973/73-99-2.jpg
1973/73-99.jpg
1973/bwrapr.jpg
1973/73-110-2.jpg
1973/73-110.jpg
1973/73-111-1.jpg
1973/73-111.jpg
1973/73-112-1.jpg
1973/73-112-2.jpg
1973/73-112.jpg
1973/73-113-1.jpg
1973/73-113.jpg
1973/73-114-1.jpg
1973/73-114.jpg
1973/73-115-1.jpg
1973/73-115-2.jpg
1973/73-115.jpg
1973/73-116-1.jpg
1973/73-116.jpg
1973/73-117-1.jpg
1973/73-117-2.jpg
1973/73-117.jpg
1973/73-118-1.jpg
1973/73-118-2.jpg
1973/73-118.jpg
1973/73-119-1.jpg
1973/73-119-2.jpg
1973/73-119.jpg
1973/73-120-1.jpg
1973/73-120-2.jpg
1973/73-120.jpg
1973/73-121-1.jpg
1974/bwrapr.jpg
1975/75-157.jpg
1975/75-136.jpg
1975/75-137.jpg
1975/75-138.jpg
1975/75-139.jpg
1975/75-140.jpg
1975/75-141.jpg
1975/75-142.jpg
1975/75-143.jpg
1975/75-144.jpg
1975/75-145.jpg
1975/75-146.jpg
1975/75-147.jpg
1975/75-148.jpg
1975/75-149.jpg
1975/75-150.jpg
1975/75-151.jpg
1975/75-152.jpg
1975/75-153.jpg
1975/75-154.jpg
1975/75-155.jpg
1975/75-156.jpg
1975/75-158.jpg
1975/75-159.jpg
1975/75-160.jpg
1975/75-161.jpg
1975/75-162.jpg
1975/75-163.jpg
1975/75-164.jpg
1975/75-165.jpg
1975/75-166.jpg
1975/75-167.jpg
1975/75-168.jpg
1975/75-169.jpg
1975/75-170.jpg
1975/75-171.jpg
1975/75-172.jpg
1975/75-173.jpg
1975/75-174.jpg
1975/75-175.jpg
1975/75-176.jpg
1975/75-177.jpg
1975/75-178.jpg
1975/75-179.jpg
1975/75-180.jpg
1975/bwrapr.jpg
1975/p75-01.jpg
1975/puzz75-4-05.jpg
1976/bwrapr.jpg
1976/m76-01.jpg
1976/m76-01b.jpg
1976/m76-01b1.jpg
1976/m76-02.jpg
1976/m76-02b.jpg
1976/m76-02b1.jpg
1976/m76-03.jpg
1976/m76-03b.jpg
1976/m76-03b1.jpg
1976/m76-04.jpg
1976/m76-04b.jpg
1976/m76-04b1.jpg
1976/m76-05.jpg
1976/m76-05b.jpg
1976/m76-05b1.jpg
1976/m76-06.jpg
1976/m76-06b.jpg
1976/m76-06b1.jpg
1976/m76-07.jpg
1976/m76-28b1.jpg
1976/m76-29.jpg
1976/m76-29b.jpg
1976/m76-29b1.jpg
1976/m76-30.jpg
1976/m76-30b.jpg
1976/m76-30b1.jpg
1976/m76-31.jpg
1976/m76-31b.jpg
1976/m76-31b1.jpg
1976/m76-32.jpg
1976/m76-32b.jpg
1976/m76-32b1.jpg
1976/m76-33.jpg
1976/m76-33b.jpg
1976/m76-33b1.jpg
1976/m76-34.jpg
1976/m76-34b.jpg
1976/m76-34b1.jpg
1976/m76-35.jpg
1976/m76-35b.jpg
1976/m76-35b1.jpg
1976/m76-47b.jpg
1976/m76-47b1.jpg
1976/m76-48.jpg
1976/m76-48b.jpg
1976/m76-48b1.jpg
1976/m76-49.jpg
1976/m76-49b.jpg
1976/m76-49b1.jpg
1976/m76-50.jpg
1976/m76-50b.jpg
1976/m76-50b1.jpg
1976/m76-51.jpg
1976/m76-51b.jpg
1976/m76-51b1.jpg
1976/m76-52.jpg
1976/m76-52b.jpg
1976/m76-52b1.jpg
1976/m76-53.jpg
1976/m76-53b.jpg
1976/m76-53b1.jpg
1976/m76-54.jpg
1976/m76-54b.jpg
1976/m76-54b1.jpg
1976/m76-55.jpg
1976/m76-55b.jpg
1976/m76-55b1.jpg
1976/m76-56.jpg
1976/m76-56b.jpg
1976/m76-56b1.jpg
1976/m76-57.jpg
1976/m76-57b.jpg
1976/m76-14b.jpg
1976/m76-14b1.jpg
1976/m76-15.jpg
1976/m76-15b.jpg
1976/m76-15b1.jpg
1976/m76-16.jpg
1976/m76-16b.jpg
1976/m76-16b1.jpg
1976/m76-17.jpg
1976/m76-17b.jpg
1976/m76-17b1.jpg
1976/m76-17bw.jpg
1976/m76-17bw1.jpg
1976/m76-18.jpg
1976/m76-18b.jpg
1976/m76-18b1.jpg
1976/m76-19.jpg
1976/m76-19b.jpg
1976/m76-19b1.jpg
1976/m76-20.jpg
1976/m76-20b.jpg
1976/m76-20b1.jpg
1976/m76-21.jpg
1976/m76-36b.jpg
1976/m76-36b1.jpg
1976/m76-37.jpg
1976/m76-37b.jpg
1976/m76-37b1.jpg
1976/m76-37bw.jpg
1976/m76-37bw1.jpg
1976/m76-38.jpg
1976/m76-38b.jpg
1976/m76-38b1.jpg
1976/m76-39.jpg
1976/m76-39b.jpg
1976/m76-39b1.jpg
1976/m76-40.jpg
1976/m76-40b.jpg
1976/m76-40b1.jpg
1976/m76-41.jpg
1976/m76-41b.jpg
1976/m76-41b1.jpg
1976/m76-42.jpg
1976/m76-42b.jpg
1976/m76-42b1.jpg
1976/m76-43.jpg
1976/m76-43b.jpg
1976/m76-43b1.jpg
1976/m76-44.jpg
1976/m76-44b.jpg
1976/m76-44b1.jpg
1976/m76-45.jpg
1976/m76-45b.jpg
1976/m76-45b1.jpg
1976/m76-46.jpg
1976/m76-46b.jpg
1976/m76-46b1.jpg
1976/m76-07b.jpg
1976/m76-14.jpg
1976/m76-21b.jpg
1976/m76-28b.jpg
1976/m76-36.jpg
1976/m76-47.jpg
1976/m76-57b1.jpg
1976/m76-58.jpg
1976/m76-58b.jpg
1976/m76-58b1.jpg
1976/m76-59.jpg
1976/m76-59b.jpg
1976/m76-59b1.jpg
1976/m76-60.jpg
1976/m76-60b.jpg
1976/m76-60b1.jpg
1976/m76-61.jpg
1976/m76-61b.jpg
1976/m76-61b1.jpg
1976/m76-62.jpg
1976/m76-62b.jpg
1976/m76-62b1.jpg
1976/m76-63.jpg
1976/m76-63b.jpg
1976/m76-63b1.jpg
1976/m76-64.jpg
1976/m76-64b.jpg
1976/m76-64b1.jpg
1976/m76-65.jpg
1976/m76-65b.jpg
1976/m76-65b1.jpg
1976/m76-66.jpg
1976/m76-66b.jpg
1976/m76-66b1.jpg
1976/m76-21b1.jpg
1976/m76-22.jpg
1976/m76-22b.jpg
1976/m76-22b1.jpg
1976/m76-23.jpg
1976/m76-23b.jpg
1976/m76-23b1.jpg
1976/m76-24.jpg
1976/m76-24b.jpg
1976/m76-24b1.jpg
1976/m76-25.jpg
1976/m76-25b.jpg
1976/m76-25b1.jpg
1976/m76-26.jpg
1976/m76-26b.jpg
1976/m76-26b1.jpg
1976/m76-27.jpg
1976/m76-27b.jpg
1976/m76-27b1.jpg
1976/m76-27bw.jpg
1976/m76-27bw1.jpg
1976/m76-28.jpg
1976/m76-07b1.jpg
1976/m76-08.jpg
1976/m76-08b.jpg
1976/m76-08b1.jpg
1976/m76-09.jpg
1976/m76-09b.jpg
1976/m76-09b1.jpg
1976/m76-10.jpg
1976/m76-10b.jpg
1976/m76-10b1.jpg
1976/m76-11.jpg
1976/m76-11b.jpg
1976/m76-11b1.jpg
1976/m76-12.jpg
1976/m76-12b.jpg
1976/m76-12b1.jpg
1976/m76-13.jpg
1976/m76-13b.jpg
1976/m76-13b1.jpg
1977/77-204.jpg
1977/77-29p.jpg
1977/77-8-206.jpg
1977/77-01p.jpg
1977/77-02.jpg
1977/77-08.jpg
1977/77-10.jpg
1977/77-14.jpg
1977/77-181.jpg
1977/77-182.jpg
1977/77-183.jpg
1977/77-184.jpg
1977/77-185.jpg
1977/77-186.jpg
1977/77-187.jpg
1977/77-188.jpg
1977/77-189.jpg
1977/77-190.jpg
1977/77-191.jpg
1977/77-192.jpg
1977/77-193.jpg
1977/77-194.jpg
1977/77-195.jpg
1977/77-196.jpg
1977/77-197.jpg
1977/77-198.jpg
1977/77-199.jpg
1977/77-200.jpg
1977/77-201.jpg
1977/77-202.jpg
1977/77-203.jpg
1977/77-31.jpg
1977/77-32.jpg
1977/77-33.jpg
1977/77-8-181.jpg
1977/77-8-182.jpg
1977/77-8-183.jpg
1977/77-8-184.jpg
1977/77-8-185.jpg
1977/77-8-186.jpg
1977/77-8-187.jpg
1977/77-8-188.jpg
1977/77-8-189.jpg
1977/77-8-190.jpg
1977/77-8-191.jpg
1977/77-8-192.jpg
1977/77-8-193.jpg
1977/77-8-194.jpg
1977/77-8-195.jpg
1977/77-8-196.jpg
1977/77-8-197.jpg
1977/77-8-198.jpg
1977/77-8-199.jpg
1977/77-8-200.jpg
1977/77-8-201.jpg
1977/77-8-202.jpg
1977/77-8-203.jpg
1977/77-8-204.jpg
1977/77-8-205.jpg
1977/77-205.jpg
1977/77-206.jpg
1977/77-207.jpg
1977/77-208.jpg
1977/77-209.jpg
1977/77-210.jpg
1977/77-211.jpg
1977/77-212.jpg
1977/77-213.jpg
1977/77-214.jpg
1977/77-215.jpg
1977/77-216.jpg
1977/77-217.jpg
1977/77-218.jpg
1977/77-219.jpg
1977/77-220.jpg
1977/77-221.jpg
1977/77-222.jpg
1977/77-223.jpg
1977/77-224.jpg
1977/77-225.jpg
1977/77-23p.jpg
1977/77-24.jpg
1977/77-25.jpg
1977/77-26.jpg
1977/77-27p.jpg
1977/77-28.jpg
1977/77-8-207.jpg
1977/77-8-208.jpg
1977/77-8-209.jpg
1977/77-8-210.jpg
1977/77-8-211.jpg
1977/77-8-212.jpg
1977/77-8-213.jpg
1977/77-8-214.jpg
1977/77-8-215.jpg
1977/77-8-216.jpg
1977/77-8-217.jpg
1977/77-8-218.jpg
1977/77-8-219.jpg
1977/77-8-220.jpg
1977/77-8-221.jpg
1977/77-8-222.jpg
1977/77-8-223.jpg
1977/77-8-224.jpg
1977/77-8-225.jpg
1977/bwrapr.jpg
1978/78-01.jpg
1978/78-01b.jpg
1978/78-01b1.jpg
1978/78-02.jpg
1978/78-02b.jpg
1978/78-02b1.jpg
1978/78-03.jpg
1978/78-03b.jpg
1978/78-03b1.jpg
1978/78-04.jpg
1978/78-04b.jpg
1978/78-04b1.jpg
1978/78-05.jpg
1978/78-05b.jpg
1978/78-05b1.jpg
1978/78-06.jpg
1978/78-06b.jpg
1978/78-06b1.jpg
1978/78-07.jpg
1978/78-07b.jpg
1978/78-07b1.jpg
1978/78-08.jpg
1978/78-08b.jpg
1978/78-08b1.jpg
1978/78-09.jpg
1978/78-09b.jpg
1978/78-09b1.jpg
1978/78-10.jpg
1978/78-38.jpg
1978/78-38b.jpg
1978/78-38b1.jpg
1978/78-39.jpg
1978/78-39b.jpg
1978/78-39b1.jpg
1978/78-40.jpg
1978/78-40b.jpg
1978/78-40b1.jpg
1978/78-41.jpg
1978/78-41b.jpg
1978/78-41b1.jpg
1978/78-42.jpg
1978/78-42b.jpg
1978/78-42b1.jpg
1978/78-43.jpg
1978/78-43b.jpg
1978/78-43b1.jpg
1978/78-44.jpg
1978/78-21.jpg
1978/78-21b.jpg
1978/78-21b1.jpg
1978/78-22.jpg
1978/78-22b.jpg
1978/78-22b1.jpg
1978/78-23.jpg
1978/78-23b.jpg
1978/78-23b1.jpg
1978/78-24.jpg
1978/78-24b.jpg
1978/78-24b1.jpg
1978/78-25.jpg
1978/78-25b.jpg
1978/78-25b1.jpg
1978/78-26.jpg
1978/78-26b.jpg
1978/78-26b1.jpg
1978/78-27.jpg
1978/78-27b.jpg
1978/78-27b1.jpg
1978/78-28.jpg
1978/78-28b.jpg
1978/78-28b1.jpg
1978/78-29.jpg
1978/78-29b.jpg
1978/78-52.jpg
1978/78-52b.jpg
1978/78-52b1.jpg
1978/78-53.jpg
1978/78-53b.jpg
1978/78-53b1.jpg
1978/78-54.jpg
1978/78-54b.jpg
1978/78-54b1.jpg
1978/78-55.jpg
1978/78-55b.jpg
1978/78-55b1.jpg
1978/78-56.jpg
1978/78-56b.jpg
1978/78-56b1.jpg
1978/78-57.jpg
1978/78-57b.jpg
1978/78-57b1.jpg
1978/78-58.jpg
1978/78-58b.jpg
1978/78-58b1.jpg
1978/78-59.jpg
1978/78-10b1.jpg
1978/78-11.jpg
1978/78-11b.jpg
1978/78-11b1.jpg
1978/78-12.jpg
1978/78-12b.jpg
1978/78-12b1.jpg
1978/78-13.jpg
1978/78-13b.jpg
1978/78-13b1.jpg
1978/78-14.jpg
1978/78-14b.jpg
1978/78-14b1.jpg
1978/78-15.jpg
1978/78-15b.jpg
1978/78-15b1.jpg
1978/78-16.jpg
1978/78-16b.jpg
1978/78-16b1.jpg
1978/78-17.jpg
1978/78-17b.jpg
1978/78-17b1.jpg
1978/78-18.jpg
1978/78-18b.jpg
1978/78-18b1.jpg
1978/78-19.jpg
1978/78-19b.jpg
1978/78-19b1.jpg
1978/78-20.jpg
1978/78-20b.jpg
1978/78-10b.jpg
1978/78-20b1.jpg
1978/78-29b1.jpg
1978/78-37b1.jpg
1978/78-44b.jpg
1978/78-51b1.jpg
1978/78-59b.jpg
1978/78-30.jpg
1978/78-30b.jpg
1978/78-30b1.jpg
1978/78-31.jpg
1978/78-31b.jpg
1978/78-31b1.jpg
1978/78-32.jpg
1978/78-32b.jpg
1978/78-32b1.jpg
1978/78-33.jpg
1978/78-33b.jpg
1978/78-33b1.jpg
1978/78-34.jpg
1978/78-34b.jpg
1978/78-34b1.jpg
1978/78-35.jpg
1978/78-35b.jpg
1978/78-35b1.jpg
1978/78-36.jpg
1978/78-36b.jpg
1978/78-36b1.jpg
1978/78-37.jpg
1978/78-37b.jpg
1978/78-59b1.jpg
1978/78-60.jpg
1978/78-60b.jpg
1978/78-60b1.jpg
1978/78-61.jpg
1978/78-61b.jpg
1978/78-61b1.jpg
1978/78-62.jpg
1978/78-62b.jpg
1978/78-62b1.jpg
1978/78-63.jpg
1978/78-63b.jpg
1978/78-63b1.jpg
1978/78-64.jpg
1978/78-64b.jpg
1978/78-64b1.jpg
1978/78-65.jpg
1978/78-65b.jpg
1978/78-65b1.jpg
1978/78-66.jpg
1978/78-66b.jpg
1978/78-66b1.jpg
1978/bwrapr.jpg
1978/78-44b1.jpg
1978/78-45.jpg
1978/78-45b.jpg
1978/78-45b1.jpg
1978/78-46.jpg
1978/78-46b.jpg
1978/78-46b1.jpg
1978/78-47.jpg
1978/78-47b.jpg
1978/78-47b1.jpg
1978/78-48.jpg
1978/78-48b.jpg
1978/78-48b1.jpg
1978/78-49.jpg
1978/78-49b.jpg
1978/78-49b1.jpg
1978/78-50.jpg
1978/78-50b.jpg
1978/78-50b1.jpg
1978/78-51.jpg
1978/78-51b.jpg
1979/79-28.jpg
1979/79-01.jpg
1979/79-02.jpg
1979/79-03.jpg
1979/79-04.jpg
1979/79-05.jpg
1979/79-06.jpg
1979/79-07.jpg
1979/79-08.jpg
1979/79-09.jpg
1979/79-10.jpg
1979/79-11.jpg
1979/79-12.jpg
1979/79-13.jpg
1979/79-14.jpg
1979/79-15.jpg
1979/79-16.jpg
1979/79-17.jpg
1979/79-18.jpg
1979/79-19.jpg
1979/79-20.jpg
1979/79-21.jpg
1979/79-22.jpg
1979/79-23.jpg
1979/79-24.jpg
1979/79-25.jpg
1979/79-26.jpg
1979/79-27.jpg
1979/79-29.jpg
1979/79-30.jpg
1979/79-31.jpg
1979/79-32.jpg
1979/79-33.jpg
1979/79-34.jpg
1979/79-35.jpg
1979/79-36.jpg
1979/79-37.jpg
1979/79-38.jpg
1979/79-39.jpg
1979/79s-01.jpg
1979/79s-01b.jpg
1979/79s-01c.jpg
1979/79s-02.jpg
1979/79s-02b.jpg
1979/79s-02c.jpg
1979/79s-03.jpg
1979/79s-03b.jpg
1979/79s-03c.jpg
1979/79s-04.jpg
1979/79s-04b.jpg
1979/79s-04c.jpg
1979/79s-05.jpg
1979/79s-05b.jpg
1979/79s-05c.jpg
1979/79s-06.jpg
1979/79s-06b.jpg
1979/79s-06c.jpg
1979/bwrapr.jpg
1980/80-20.jpg
1980/80-01.jpg
1980/80-02.jpg
1980/80-03.jpg
1980/80-04.jpg
1980/80-05.jpg
1980/80-06.jpg
1980/80-07.jpg
1980/80-08.jpg
1980/80-09.jpg
1980/80-10.jpg
1980/80-11.jpg
1980/80-12.jpg
1980/80-13.jpg
1980/80-14.jpg
1980/80-15.jpg
1980/80-16.jpg
1980/80-17.jpg
1980/80-18.jpg
1980/80-19.jpg
1980/80-21.jpg
1980/80-22.jpg
1980/80-23.jpg
1980/80-24.jpg
1980/80-25.jpg
1980/80-26.jpg
1980/80-27.jpg
1980/80-28.jpg
1980/80-29.jpg
1980/80-30.jpg
1980/80-31.jpg
1980/80-32.jpg
1980/80-33.jpg
1980/80-34.jpg
1980/80-35.jpg
1980/80-36.jpg
1980/80none.jpg
1980/bwrapr.jpg
1983/83-10-21.jpg
1983/83-3-04.jpg
1983/83-3-26.jpg
1983/83-10-01.jpg
1983/83-10-02.jpg
1983/83-10-03.jpg
1983/83-10-04.jpg
1983/83-10-05.jpg
1983/83-10-06.jpg
1983/83-10-07.jpg
1983/83-10-08.jpg
1983/83-10-09.jpg
1983/83-10-10.jpg
1983/83-10-11.jpg
1983/83-10-12.jpg
1983/83-10-13.jpg
1983/83-10-14.jpg
1983/83-10-15.jpg
1983/83-10-16.jpg
1983/83-10-17.jpg
1983/83-10-18.jpg
1983/83-10-19.jpg
1983/83-10-20.jpg
1983/83-3-05.jpg
1983/83-3-06.jpg
1983/83-3-07.jpg
1983/83-3-08.jpg
1983/83-3-09.jpg
1983/83-3-10.jpg
1983/83-3-11.jpg
1983/83-3-12.jpg
1983/83-3-13.jpg
1983/83-3-14.jpg
1983/83-3-15.jpg
1983/83-3-16.jpg
1983/83-3-17.jpg
1983/83-3-18.jpg
1983/83-3-19.jpg
1983/83-3-20.jpg
1983/83-3-21.jpg
1983/83-3-22.jpg
1983/83-3-23.jpg
1983/83-3-24.jpg
1983/83-3-25.jpg
1983/83-10-22.jpg
1983/83-10-23.jpg
1983/83-10-24.jpg
1983/83-10-25.jpg
1983/83-10-26.jpg
1983/83-10-27.jpg
1983/83-10-28.jpg
1983/83-10-29.jpg
1983/83-10-30.jpg
1983/83-10-31.jpg
1983/83-10-32.jpg
1983/83-10-33.jpg
1983/83-10-34.jpg
1983/83-10-35.jpg
1983/83-10-36.jpg
1983/83-10-37.jpg
1983/83-10-38.jpg
1983/83-10-39.jpg
1983/83-10-40.jpg
1983/83-10-41.jpg
1983/83-10-42.jpg
1983/83-10-43.jpg
1983/83-10-44.jpg
1983/83-10-45.jpg
1983/83-3-01.jpg
1983/83-3-02.jpg
1983/83-3-03.jpg
1983/83-3-27.jpg
1983/83-3-28.jpg
1983/83-3-29.jpg
1983/83-3-30.jpg
1983/83-3-31.jpg
1983/83-3-32.jpg
1983/83-3-33.jpg
1983/83-3-34.jpg
1983/83-3-35.jpg
1983/83-3-36.jpg
1983/83-3-37.jpg
1983/83-3-38.jpg
1983/83-3-39.jpg
1983/83-3-40.jpg
1983/83-3-41.jpg
1983/83-3-42.jpg
1983/83-3-43.jpg
1983/83-3-44.jpg
1983/83-3-45.jpg
1983/bwrapr.jpg
1984/1984advert.jpg
1984/1984stick.jpg
1984/84-01.jpg
1984/84-02.jpg
1984/84-03.jpg
1984/84-04.jpg
1984/84-05.jpg
1984/84-06.jpg
1984/84-07.jpg
1984/84-08.jpg
1984/84-09.jpg
1984/84-10.jpg
1984/84-11.jpg
1984/84-12.jpg
1984/84-13.jpg
1984/84-14.jpg
1984/84-15.jpg
1984/84-16.jpg
1984/84-17.jpg
1984/84-18.jpg
1984/84-19.jpg
1984/84-20.jpg
1984/84-21.jpg
1984/84-22.jpg
1984/84-23.jpg
1984/84-24.jpg
1984/84-25.jpg
1984/84-26.jpg
1984/84-27.jpg
1984/84-28.jpg
1984/84-29.jpg
1984/84-30.jpg
1984/84b-08.jpg
1984/84b-09.jpg
1984/84b-10.jpg
1984/84b-11.jpg
1984/84b-12.jpg
1984/84b-13.jpg
1984/84b-14.jpg
1984/84b-15.jpg
1984/84b-16.jpg
1984/84b-17.jpg
1984/84b-18.jpg
1984/84b-19.jpg
1984/84b-20.jpg
1984/84b-21.jpg
1984/84b-22.jpg
1984/84b-23.jpg
1984/84b-24.jpg
1984/84b-25.jpg
1984/84b-26.jpg
1984/84b-27.jpg
1984/84b-28.jpg
1984/84b-29.jpg
1984/84b-30.jpg
1984/84b-31.jpg
1984/84b-32.jpg
1984/84b-33.jpg
1984/84b-34.jpg
1984/84b-35.jpg
1984/84b-36.jpg
1984/84b-37.jpg
1984/84b-38.jpg
1984/84b-39.jpg
1984/84b-40.jpg
1984/84b-41.jpg
1984/84b-42.jpg
1984/84b-43.jpg
1984/84b-44.jpg
1984/84b-45.jpg
1984/84a-14.jpg
1984/84a-15.jpg
1984/84a-16.jpg
1984/84a-17.jpg
1984/84a-18.jpg
1984/84a-19.jpg
1984/84a-20.jpg
1984/84a-21.jpg
1984/84a-22.jpg
1984/84a-23.jpg
1984/84a-24.jpg
1984/84a-25.jpg
1984/84a-26.jpg
1984/84a-27.jpg
1984/84a-28.jpg
1984/84a-29.jpg
1984/84a-30.jpg
1984/84a-31.jpg
1984/84a-32.jpg
1984/84a-33.jpg
1984/84a-34.jpg
1984/84a-35.jpg
1984/84a-36.jpg
1984/84a-37.jpg
1984/84a-38.jpg
1984/84a-39.jpg
1984/84a-40.jpg
1984/84a-41.jpg
1984/84a-42.jpg
1984/84a-43.jpg
1984/84a-44.jpg
1984/84a-45.jpg
1984/84b-01.jpg
1984/84b-02.jpg
1984/84b-03.jpg
1984/84b-04.jpg
1984/84b-05.jpg
1984/84b-06.jpg
1984/84c-02.jpg
1984/84c-03.jpg
1984/84c-04.jpg
1984/84c-05.jpg
1984/84c-06.jpg
1984/84c-07.jpg
1984/84c-08.jpg
1984/84c-09.jpg
1984/84c-10.jpg
1984/84c-11.jpg
1984/84c-12.jpg
1984/84c-13.jpg
1984/84c-14.jpg
1984/84c-15.jpg
1984/84c-16.jpg
1984/84c-17.jpg
1984/84c-18.jpg
1984/84c-19.jpg
1984/84c-20.jpg
1984/84c-21.jpg
1984/84c-22.jpg
1984/84c-23.jpg
1984/84c-24.jpg
1984/84-32.jpg
1984/84-33.jpg
1984/84-34.jpg
1984/84-35.jpg
1984/84-36.jpg
1984/84-37.jpg
1984/84-38.jpg
1984/84-39.jpg
1984/84-40.jpg
1984/84-41.jpg
1984/84-42.jpg
1984/84-43.jpg
1984/84-44.jpg
1984/84-45.jpg
1984/84a-01.jpg
1984/84a-02.jpg
1984/84a-03.jpg
1984/84a-04.jpg
1984/84a-05.jpg
1984/84a-06.jpg
1984/84a-07.jpg
1984/84a-08.jpg
1984/84a-09.jpg
1984/84a-10.jpg
1984/84a-11.jpg
1984/84a-12.jpg
1984/84-31.jpg
1984/84a-13.jpg
1984/84b-07.jpg
1984/84c-01.jpg
1984/84c-25.jpg
1984/84c-26.jpg
1984/84c-27.jpg
1984/84c-28.jpg
1984/84c-29.jpg
1984/84c-30.jpg
1984/84c-31.jpg
1984/84c-32.jpg
1984/84c-33.jpg
1984/84c-34.jpg
1984/84c-35.jpg
1984/84c-36.jpg
1984/84c-37.jpg
1984/84c-38.jpg
1984/84c-39.jpg
1984/84c-40.jpg
1984/84c-41.jpg
1984/84c-42.jpg
1984/84c-43.jpg
1984/84c-44.jpg
1984/84c-45.jpg
1984/bwrapr.jpg
1985/85-25.jpg
1985/85-01.jpg
1985/85-02.jpg
1985/85-03.jpg
1985/85-04.jpg
1985/85-05.jpg
1985/85-06.jpg
1985/85-07.jpg
1985/85-08.jpg
1985/85-09.jpg
1985/85-10.jpg
1985/85-11.jpg
1985/85-12.jpg
1985/85-13.jpg
1985/85-14.jpg
1985/85-15.jpg
1985/85-16.jpg
1985/85-17.jpg
1985/85-18.jpg
1985/85-19.jpg
1985/85-20.jpg
1985/85-21.jpg
1985/85-22.jpg
1985/85-23.jpg
1985/85-24.jpg
1985/85-26.jpg
1985/85-27.jpg
1985/85-28.jpg
1985/85-29.jpg
1985/85-30.jpg
1985/85-31.jpg
1985/85-32.jpg
1985/85-33.jpg
1985/85-34.jpg
1985/85-35.jpg
1985/85-36.jpg
1985/85-37.jpg
1985/85-38.jpg
1985/85-39.jpg
1985/85-40.jpg
1985/85-41.jpg
1985/85-42.jpg
1985/85-43.jpg
1985/85-44.jpg
1985/85-45.jpg
1985/85-box-12.jpg
1985/85-box-18.jpg
1985/bwrapr.jpg
1987/87-01.jpg
1987/87-02.jpg
1987/87-03.jpg
1987/87-04.jpg
1987/87-05.jpg
1987/87-06.jpg
1987/87-07.jpg
1987/87-08.jpg
1987/87-09.jpg
1987/87-10.jpg
1987/87-11.jpg
1987/87-12.jpg
1987/87-13.jpg
1987/87-14.jpg
1987/87-15.jpg
1987/87-16.jpg
1987/87-17.jpg
1987/87-18.jpg
1987/87-19.jpg
1987/87-20.jpg
1987/87-21.jpg
1987/87-22.jpg
1987/87-23.jpg
1987/87-24.jpg
1987/87-25.jpg
1987/87-26.jpg
1987/87-27.jpg
1987/87-28.jpg
1987/87-29.jpg
1987/87-30.jpg
1987/87-31.jpg
1987/87-32.jpg
1987/bwrapr.jpg
1989/prc286.jpg
1989/bwrapr.jpg
1989/prc263.jpg
1989/prc264.jpg
1989/prc265.jpg
1989/prc266.jpg
1989/prc267.jpg
1989/prc268.jpg
1989/prc269.jpg
1989/prc270.jpg
1989/prc271.jpg
1989/prc272.jpg
1989/prc273.jpg
1989/prc274.jpg
1989/prc275.jpg
1989/prc276.jpg
1989/prc277.jpg
1989/prc278.jpg
1989/prc279.jpg
1989/prc280.jpg
1989/prc281.jpg
1989/prc282.jpg
1989/prc283.jpg
1989/prc284.jpg
1989/prc285.jpg
1989/prc287.jpg
1989/prc288.jpg
1989/prc289.jpg
1989/prc290.jpg
1989/prc291.jpg
1989/prc292.jpg
1989/prc293.jpg
1989/prc294.jpg
1989/prc295.jpg
1989/prc296.jpg
1989/prc297.jpg
1989/prc298.jpg
1989/prc299.jpg
1989/prc300.jpg
1989/prc301.jpg
1989/prc302.jpg
1989/prc303.jpg
1989/prc304.jpg
1989/prc305.jpg
1989/prc306.jpg
1990/90a-01.jpg
1990/90a-02.jpg
1990/90a-03.jpg
1990/90a-04.jpg
1990/90a-05.jpg
1990/90a-06.jpg
1990/90b-26.jpg
1990/90b-27.jpg
1990/90b-28.jpg
1990/90b-29.jpg
1990/90b-30.jpg
1990/90b-31.jpg
1990/90b-32.jpg
1990/90b-33.jpg
1990/90b-34.jpg
1990/90b-35.jpg
1990/90b-36.jpg
1990/90b-37.jpg
1990/90b-38.jpg
1990/90b-39.jpg
1990/90b-40.jpg
1990/90b-41.jpg
1990/90b-42.jpg
1990/90b-43.jpg
1990/90b-44.jpg
1990/90b-45.jpg
1990/90b-46.jpg
1990/90b-47.jpg
1990/90b-48.jpg
1990/90b-49.jpg
1990/90b-50.jpg
1990/90c-01.jpg
1990/90c-02.jpg
1990/90c-27.jpg
1990/90c-28.jpg
1990/90c-29.jpg
1990/90c-30.jpg
1990/90c-31.jpg
1990/90c-32.jpg
1990/90c-33.jpg
1990/90c-34.jpg
1990/90c-35.jpg
1990/90c-36.jpg
1990/90c-37.jpg
1990/90c-38.jpg
1990/90c-39.jpg
1990/90c-40.jpg
1990/90c-41.jpg
1990/90c-42.jpg
1990/90c-43.jpg
1990/90c-44.jpg
1990/90c-45.jpg
1990/90c-46.jpg
1990/90c-47.jpg
1990/90c-48.jpg
1990/90c-49.jpg
1990/90c-50.jpg
1990/90a-30.jpg
1990/90a-31.jpg
1990/90a-32.jpg
1990/90a-33.jpg
1990/90a-34.jpg
1990/90a-35.jpg
1990/90a-36.jpg
1990/90a-37.jpg
1990/90a-38.jpg
1990/90a-39.jpg
1990/90a-40.jpg
1990/90a-41.jpg
1990/90a-42.jpg
1990/90a-43.jpg
1990/90a-44.jpg
1990/90a-45.jpg
1990/90a-46.jpg
1990/90a-47.jpg
1990/90a-48.jpg
1990/90a-49.jpg
1990/90a-50.jpg
1990/90b-01.jpg
1990/90b-02.jpg
1990/90c-04.jpg
1990/90c-05.jpg
1990/90c-06.jpg
1990/90c-07.jpg
1990/90c-08.jpg
1990/90c-09.jpg
1990/90c-10.jpg
1990/90c-11.jpg
1990/90c-12.jpg
1990/90c-13.jpg
1990/90c-14.jpg
1990/90c-15.jpg
1990/90c-16.jpg
1990/90c-17.jpg
1990/90c-18.jpg
1990/90c-19.jpg
1990/90c-20.jpg
1990/90c-21.jpg
1990/90c-22.jpg
1990/90c-23.jpg
1990/90c-24.jpg
1990/90c-25.jpg
1990/90a-07.jpg
1990/90a-29.jpg
1990/90b-03.jpg
1990/90b-25.jpg
1990/90c-03.jpg
1990/90c-26.jpg
1990/90d-01.jpg
1990/90d-05.jpg
1990/90d-16.jpg
1990/90d-21.jpg
1990/90d-24.jpg
1990/90d-29.jpg
1990/90d-30.jpg
1990/90d-39.jpg
1990/90d-43.jpg
1990/90d-46.jpg
1990/90d-47.jpg
1990/90e-01.jpg
1990/90f-01.jpg
1990/90g-01.jpg
1990/90h-32.jpg
1990/90i-13.jpg
1990/90j-48.jpg
1990/90k-24.jpg
1990/90l-16.jpg
1990/bwrapr.jpg
1990/90b-04.jpg
1990/90b-05.jpg
1990/90b-06.jpg
1990/90b-07.jpg
1990/90b-08.jpg
1990/90b-09.jpg
1990/90b-10.jpg
1990/90b-11.jpg
1990/90b-12.jpg
1990/90b-13.jpg
1990/90b-14.jpg
1990/90b-15.jpg
1990/90b-16.jpg
1990/90b-17.jpg
1990/90b-18.jpg
1990/90b-19.jpg
1990/90b-20.jpg
1990/90b-21.jpg
1990/90b-22.jpg
1990/90b-23.jpg
1990/90b-24.jpg
1990/90a-08.jpg
1990/90a-09.jpg
1990/90a-10.jpg
1990/90a-11.jpg
1990/90a-12.jpg
1990/90a-13.jpg
1990/90a-14.jpg
1990/90a-15.jpg
1990/90a-16.jpg
1990/90a-17.jpg
1990/90a-18.jpg
1990/90a-19.jpg
1990/90a-20.jpg
1990/90a-21.jpg
1990/90a-22.jpg
1990/90a-23.jpg
1990/90a-24.jpg
1990/90a-25.jpg
1990/90a-26.jpg
1990/90a-27.jpg
1990/90a-28.jpg
1994/94-01.jpg
1994/94-02.jpg
1994/94-03.jpg
1994/94-04.jpg
1994/94-05.jpg
1994/94-06.jpg
1994/bwrapr.jpg
1995/bwrapr.jpg
1995/puzz95-01f.jpg
1995/puzz95-11.jpg
1998/98-20.jpg
1998/98-4 of 4.jpg
1998/98-01.jpg
1998/98-02.jpg
1998/98-03.jpg
1998/98-04.jpg
1998/98-05.jpg
1998/98-06.jpg
1998/98-07.jpg
1998/98-08.jpg
1998/98-09.jpg
1998/98-1 of 4.jpg
1998/98-10.jpg
1998/98-11.jpg
1998/98-12.jpg
1998/98-13.jpg
1998/98-14.jpg
1998/98-15.jpg
1998/98-16.jpg
1998/98-17.jpg
1998/98-18.jpg
1998/98-19.jpg
1998/98-2 of 4.jpg
1998/98-40.jpg
1998/98-41.jpg
1998/98-42.jpg
1998/98-43.jpg
1998/98-44.jpg
1998/98-45.jpg
1998/98-46.jpg
1998/98-47.jpg
1998/98-48.jpg
1998/98-49.jpg
1998/98-50.jpg
1998/98-51.jpg
1998/98-52.jpg
1998/98-53.jpg
1998/98-54.jpg
1998/98-55.jpg
1998/98-56.jpg
1998/98-57.jpg
1998/98-58.jpg
1998/98-59.jpg
1998/98-60.jpg
1998/98-61.jpg
1998/98-62.jpg
1998/98-63.jpg
1998/98-64.jpg
1998/98-65.jpg
1998/98-66.jpg
1998/98-67.jpg
1998/98-68.jpg
1998/98-69.jpg
1998/98-70.jpg
1998/98-71.jpg
1998/98-72.jpg
1998/98-73.jpg
1998/98-74.jpg
1998/98-75.jpg
1998/bwrapr.jpg
1998/98-21.jpg
1998/98-22.jpg
1998/98-23.jpg
1998/98-24.jpg
1998/98-25.jpg
1998/98-26.jpg
1998/98-27.jpg
1998/98-28.jpg
1998/98-29.jpg
1998/98-3 of 4.jpg
1998/98-30.jpg
1998/98-31.jpg
1998/98-32.jpg
1998/98-33.jpg
1998/98-34.jpg
1998/98-35.jpg
1998/98-36.jpg
1998/98-37.jpg
1998/98-38.jpg
1998/98-39.jpg
2003/bwrapr.jpg
2003/prc198.jpg
2003/prc199.jpg
2003/prc200.jpg
2003/prc201.jpg
2003/prc202.jpg
2003/prc203.jpg
2003/prc204.jpg
2003/prc205.jpg
2003/prc206.jpg
2003/prc207.jpg
2003/prc208.jpg
2003/prc209.jpg
2003/prc210.jpg
2003/prc211.jpg
2003/prc212.jpg
2003/prc213.jpg
2003/prc214.jpg
2003/prc215.jpg
2003/prc216.jpg
2003/prc217.jpg
2003/prc218.jpg
2003/prc219.jpg
2003/prc220.jpg
2003/prc221.jpg
2003/prc222.jpg
2003/prc223.jpg
2003/prc224.jpg
2003/prc225.jpg
2003/prc226.jpg
2003/prc227.jpg
2003/prc228.jpg
2004/04-01.jpg
2004/04-02.jpg
2004/04-03.jpg
2004/04-04.jpg
2004/04-05.jpg
2004/2-59-020.jpg
2004/84b-05.jpg
2004/bwrapr.jpg
2004/D3-17.jpg
2004/D3BW-36.jpg
2004/D4-20.jpg
2007/07-05.jpg
2007/07c-05.jpg
2007/bwrapr.jpg
2012/12a-22.jpg
2012/12a-45.jpg
2012/12a-01.jpg
2012/12a-02.jpg
2012/12a-03.jpg
2012/12a-04.jpg
2012/12a-05.jpg
2012/12a-06.jpg
2012/12a-07.jpg
2012/12a-08.jpg
2012/12a-09.jpg
2012/12a-10.jpg
2012/12a-11.jpg
2012/12a-12.jpg
2012/12a-13.jpg
2012/12a-14.jpg
2012/12a-15.jpg
2012/12a-16.jpg
2012/12a-17.jpg
2012/12a-18.jpg
2012/12a-19.jpg
2012/12a-20.jpg
2012/12a-21.jpg
2012/12a-46.jpg
2012/12a-47.jpg
2012/12a-48.jpg
2012/12a-49.jpg
2012/12a-50.jpg
2012/12a-51.jpg
2012/12a-52.jpg
2012/12a-53.jpg
2012/12a-54.jpg
2012/12a-55.jpg
2012/12a-56.jpg
2012/12a-57.jpg
2012/12a-58.jpg
2012/12a-59.jpg
2012/12a-60.jpg
2012/12a-61.jpg
2012/12a-62.jpg
2012/12a-63.jpg
2012/12a-64.jpg
2012/12a-65.jpg
2012/12a-66.jpg
2012/12a-67.jpg
2012/12a-68.jpg
2012/12a-69.jpg
2012/12a-70.jpg
2012/12a-71.jpg
2012/12a-72.jpg
2012/12j-73.jpg
2012/12j-74.jpg
2012/12j-75.jpg
2012/2012blur.jpg
2012/12a-23.jpg
2012/12a-24.jpg
2012/12a-25.jpg
2012/12a-26.jpg
2012/12a-27.jpg
2012/12a-28.jpg
2012/12a-29.jpg
2012/12a-30.jpg
2012/12a-31.jpg
2012/12a-32.jpg
2012/12a-33.jpg
2012/12a-34.jpg
2012/12a-35.jpg
2012/12a-36.jpg
2012/12a-37.jpg
2012/12a-38.jpg
2012/12a-39.jpg
2012/12a-40.jpg
2012/12a-41.jpg
2012/12a-42.jpg
2012/12a-43.jpg
2012/12a-44.jpg
2019/19-01.jpg
2019/19f-01.jpg
2019/bazooka2019.jpg
2019/bwrapr.jpg
archie/archie1-85-1.jpg
archie/archie1-85-7.jpg
archie/archie1A-57-13.jpg
archie/archie1A-57-24.jpg
archie/archie2-58-12.jpg
archie/archie2-58-34.jpg
archie/archie2-58-36.jpg
archie/archie2-58-50.jpg
archie/bwrapr.jpg
banner001.jpg
book/2013cover.jpg
book/bwrapr.jpg
book/cat01.jpg
book/gumbook.jpg
book/prizecat01.jpg
boxes/1988box.jpg
boxes/1997box.jpg
boxes/2002box.jpg
boxes/bwrapr.jpg
bwrapr.jpg
certificates/ed100.jpg
certificates/ed101.jpg
certificates/ed102.jpg
certificates/ed103.jpg
certificates/ed104.jpg
certificates/ed105.jpg
certificates/ed106.jpg
certificates/ed107.jpg
certificates/ed108.jpg
certificates/ed109.jpg
certificates/giftcerta.jpg
certificates/giftcertb.jpg
collectibles/bzc13.jpg
collectibles/1982eraser.jpg
collectibles/1982eraser2.jpg
collectibles/1982mini.jpg
collectibles/1982stickers.jpg
collectibles/balm.jpg
collectibles/bloomies.jpg
collectibles/bobbleblue.jpg
collectibles/bobblered.jpg
collectibles/bwrapr.jpg
collectibles/bzc01.jpg
collectibles/bzc02.jpg
collectibles/bzc03.jpg
collectibles/bzc04.jpg
collectibles/bzc05.jpg
collectibles/bzc06.jpg
collectibles/bzc07.jpg
collectibles/bzc08.jpg
collectibles/bzc09.jpg
collectibles/bzc10.jpg
collectibles/bzc11.jpg
collectibles/bzc12.jpg
collectibles/bzc14.jpg
collectibles/bzc15.jpg
collectibles/bzc16.jpg
collectibles/bzc17.jpg
collectibles/bzc18.jpg
collectibles/catalog.jpg
collectibles/micro.jpg
collectibles/mug.jpg
collectibles/mugc.jpg
collectibles/mugraps.jpg
collectibles/prc013.jpg
collectibles/prc014.jpg
collectibles/prc307.jpg
collectibles/prc308.jpg
collectibles/prc427.jpg
collectibles/prc428.jpg
collectibles/proof31.jpg
collectibles/tin eckerd.jpg
collectibles/tin.jpg
collectibles/truck.jpg
collectibles/viewmaster.jpg
contributers/bwrapr.jpg
contributers/chthai001.jpg
contributers/gavin007.jpg
contributers/ne05.jpg
foreign/88-israel-73.jpg
foreign/AU6-03.jpg
foreign/bwrapr.jpg
foreign/bz098.jpg
foreign/C4-01.jpg
foreign/china-02.jpg
foreign/ep-06.jpg
foreign/y-01.jpg
jokes/01-1-01.jpg
jokes/01-1R-01.jpg
jokes/08-1-01.jpg
jokes/81f-01.jpg
jokes/81j-01.jpg
jokes/bwrapr.jpg
large/1-57-20.jpg
large/1-57-xx.jpg
large/1-58-05.jpg
large/1-61-01.jpg
large/1-61-02.jpg
large/1-61-04.jpg
large/1-61-05.jpg
large/1-61-08.jpg
large/1-61-12.jpg
large/1-61-15.jpg
large/1-61-22.jpg
large/1-61-26.jpg
large/1-62-19.jpg
large/1-62-26.jpg
large/2-036-1.jpg
large/2-037.jpg
large/2-042-1.jpg
large/2-042.jpg
large/2-044.jpg
large/2-045.jpg
large/2-047.jpg
large/2-048-1.jpg
large/2-048.jpg
large/2-049.jpg
large/2-051.jpg
large/2-052.jpg
large/2-053-1.jpg
large/2-057.jpg
large/3-063.jpg
large/3-064.jpg
large/3-067.jpg
large/3-070.jpg
large/3-072.jpg
large/3-079.jpg
large/3-084.jpg
large/4-091.jpg
large/4-092.jpg
large/4-093.jpg
large/5-138.jpg
large/5-139.jpg
large/5-140.jpg
large/5-143.jpg
large/5-145.jpg
large/5-146.jpg
large/5-149.jpg
large/5s-122.jpg
large/5s-123.jpg
large/5s-124.jpg
large/5s-125.jpg
large/5s-129.jpg
large/5s-130.jpg
large/5s-131.jpg
large/5s-132.jpg
large/5s-133.jpg
large/5s-135.jpg
large/5s-139.jpg
large/5s-141.jpg
large/5s-143.jpg
large/5s-155.jpg
large/5s-156.jpg
large/5s-159.jpg
large/5s-160.jpg
large/73-01.jpg
large/73-02.jpg
large/73-03.jpg
large/73-04.jpg
large/73-05.jpg
large/73-06.jpg
large/73-07.jpg
large/73-08.jpg
large/73-09.jpg
large/73-10.jpg
large/4-097.jpg
large/4-098.jpg
large/4-099.jpg
large/4-100.jpg
large/4-107.jpg
large/4-108.jpg
large/4-111.jpg
large/4-113.jpg
large/4-114.jpg
large/4-116.jpg
large/4-117.jpg
large/4-118.jpg
large/4-119.jpg
large/4Pin-093.jpg
large/4Pin-096.jpg
large/4Pin-102.jpg
large/4Pin-119.jpg
large/4Pin-120.jpg
large/4Pur-095.jpg
large/73-12.jpg
large/73-13.jpg
large/73-13uncut.jpg
large/73-14.jpg
large/73-14uncut.jpg
large/73-15.jpg
large/73-16.jpg
large/73-17.jpg
large/73-18.jpg
large/73-19.jpg
large/73-20.jpg
large/73-21.jpg
large/73-22.jpg
large/73-23.jpg
large/73-23uncut.jpg
large/73-24.jpg
large/73-24uncut.jpg
large/73-25.jpg
large/73-26.jpg
large/4Pur-109.jpg
large/4Pur-111.jpg
large/4Pur-112.jpg
large/4Pur-113.jpg
large/4Pur-117.jpg
large/4Pur-118.jpg
large/4Pur-120.jpg
large/5-122.jpg
large/5-123.jpg
large/5-124.jpg
large/5-127.jpg
large/5-129.jpg
large/5-130.jpg
large/5-131.jpg
large/5-132.jpg
large/5-133.jpg
large/5-134.jpg
large/5-135.jpg
large/5-136.jpg
large/4-094.jpg
large/4Pur-101.jpg
large/5-137.jpg
large/73-11.jpg
large/73-27.jpg
large/73-28.jpg
large/73-29.jpg
large/73-30.jpg
large/bwrapr.jpg
large/GR-37.jpg
large/GR-63-02.jpg
large/GR-63-03.jpg
large/GR-63-04.jpg
large/GR-63-11.jpg
large/GR-63-14.jpg
large/GR-63-17.jpg
large/GR-63-19.jpg
large/GR-63-23.jpg
large/GR-63-24.jpg
large/GR-63-25.jpg
large/x1-10.jpg
large/x1-22.jpg
miscut/bwrapr.jpg
miscut/miscut68-040.jpg
miscut/miscut72-040.jpg
miscut/miscut73-028.jpg
miscut/miscut73-091.jpg
miscut/miscut73-098.jpg
miscut/miscut73-107.jpg
miscut/miscut73-133.jpg
miscut/miscut75-173.jpg
video/2005back.jpg
video/2005front.jpg
video/bwrapr.jpg
video/video3stooges.jpg
video/videobetty.jpg
video/videoclassic.jpg
video/videofelix.jpg
video/videopopeye.jpg
video/videosuperman.jpg
whole/297.jpg
whole/p273.jpg
whole/p296.jpg
whole/271.jpg
whole/272.jpg
whole/273.jpg
whole/274.jpg
whole/275.jpg
whole/276.jpg
whole/277.jpg
whole/278.jpg
whole/279.jpg
whole/280.jpg
whole/281.jpg
whole/282.jpg
whole/283.jpg
whole/284.jpg
whole/285.jpg
whole/286.jpg
whole/287.jpg
whole/288.jpg
whole/289.jpg
whole/290.jpg
whole/291.jpg
whole/292.jpg
whole/293.jpg
whole/294.jpg
whole/295.jpg
whole/296.jpg
whole/p274.jpg
whole/p275.jpg
whole/p276.jpg
whole/p277.jpg
whole/p278.jpg
whole/p279.jpg
whole/p280.jpg
whole/p281.jpg
whole/p282.jpg
whole/p283.jpg
whole/p284.jpg
whole/p285.jpg
whole/p286.jpg
whole/p287.jpg
whole/p288.jpg
whole/p289.jpg
whole/p290.jpg
whole/p291.jpg
whole/p292.jpg
whole/p293.jpg
whole/p294.jpg
whole/p295.jpg
whole/p297.jpg
whole/p298.jpg
whole/p299.jpg
whole/p300.jpg
whole/p301.jpg
whole/p302.jpg
whole/p303.jpg
whole/p304.jpg
whole/p305.jpg
whole/p306.jpg
whole/p307.jpg
whole/p308.jpg
whole/p309.jpg
whole/p310.jpg
whole/p311.jpg
whole/p312.jpg
whole/p313.jpg
whole/p314.jpg
whole/p315.jpg
whole/298.jpg
whole/299.jpg
whole/300.jpg
whole/301.jpg
whole/302.jpg
whole/303.jpg
whole/304.jpg
whole/305.jpg
whole/306.jpg
whole/307.jpg
whole/308.jpg
whole/309.jpg
whole/310.jpg
whole/311.jpg
whole/312.jpg
whole/313.jpg
whole/314.jpg
whole/315.jpg
whole/bwrapr.jpg
whole/p271.jpg
whole/p272.jpg
wrappers/1972apple-15.jpg
wrappers/1972cherry-15.jpg
wrappers/1972grape-15.jpg
wrappers/1972original-15.jpg
wrappers/1975apple-20.jpg
wrappers/1975applec-20.jpg
wrappers/1975cherryc-20.jpg
wrappers/1975grape-20.jpg
wrappers/1975grapec-20.jpg
wrappers/1975original-20.jpg
wrappers/1978apple-20.jpg
wrappers/1978cherry-20.jpg
wrappers/1978original-20.jpg
wrappers/1980 original.jpg
wrappers/1981original.jpg
wrappers/1982watermelon.jpg
wrappers/1983 apple.jpg
wrappers/1983 raspberry.jpg
wrappers/1983 strawberry.jpg
wrappers/1984stick.jpg
wrappers/1985 cherry.jpg
wrappers/1985 grape.jpg
wrappers/1988-israel-wrapper.jpg
wrappers/1990 original.jpg
wrappers/1990 single.jpg
wrappers/big original.jpg
wrappers/bwrapr.jpg
wrappers/original469.jpg
wrappers/spearmint464.jpg
wrappers/spearmint471.jpg
